{
  "name": "",
  "css_prefix_text": "icon-",
  "css_use_suffix": false,
  "hinting": true,
  "units_per_em": 1000,
  "ascent": 850,
  "glyphs": [
    {
      "uid": "f8110bd73107f8274feae05d18c592cd",
      "css": "cup",
      "code": 59392,
      "src": "custom_icons",
      "selected": true,
      "svg": {
        "path": "M156.1 241.9H156.1A15.4 15.4 0 0 0 141.1 258V394.9A15.5 15.5 0 0 0 155.4 411H155.4A15.3 15.3 0 0 0 170.3 395V263.1C170.5 249.4 164.1 242.2 156.1 241.9ZM782.7 241.9H782.7A15.4 15.4 0 0 0 767.5 258V394.9A15.5 15.5 0 0 0 781.9 411H781.9A15.3 15.3 0 0 0 796.8 395V263.1C796.9 249.4 790.5 242.2 782.7 241.9ZM601.5 260.9L527.1 255.4A4 4 0 0 1 523.7 252.7L495.4 181.2A24.6 24.6 0 0 0 449.3 181.2L420.9 252.8A4.2 4.2 0 0 1 417.5 255.4L343.3 260.9A24.7 24.7 0 0 0 321.3 278.1 25.8 25.8 0 0 0 328.7 306L386.2 355.2A4.4 4.4 0 0 1 387.5 359.4L370.3 433.7A25.8 25.8 0 0 0 373.8 455.8 24.5 24.5 0 0 0 393.4 466 23 23 0 0 0 406.5 461.9L469.3 421.4A4 4 0 0 1 473.6 421.4L537 461.8A23.1 23.1 0 0 0 550.3 466 24.1 24.1 0 0 0 569.1 456.4 26.8 26.8 0 0 0 573.9 434.2L556.7 359.7A4.5 4.5 0 0 1 558.1 355.4L616.4 306.1A25.8 25.8 0 0 0 623.7 278.3 24.7 24.7 0 0 0 601.9 261.1ZM596.1 296.8L541.8 341.2A18.2 18.2 0 0 0 535.8 359.5L552.2 426.7A9.2 9.2 0 0 1 550.4 434.7 8.6 8.6 0 0 1 544 438 8 8 0 0 1 539.3 436.5L480.3 399.8A17.8 17.8 0 0 0 470.9 397.2 17.2 17.2 0 0 0 461.4 399.9L402.9 436.6A8.6 8.6 0 0 1 391.5 434.5 8.6 8.6 0 0 1 390.3 426.9L406.6 359.5A18.2 18.2 0 0 0 400.6 341.3L347.4 296.9A8.6 8.6 0 0 1 344.8 287.2 8.6 8.6 0 0 1 352.7 281.1L421.5 276.1A17.9 17.9 0 0 0 436.8 264.9L463.1 200.3A8.6 8.6 0 0 1 479.7 200.3L506.1 264.9A17.9 17.9 0 0 0 521.4 276.1L590.2 281.2A8.6 8.6 0 0 1 598 287.3 8.6 8.6 0 0 1 595.5 296.7ZM606.3 294.1M885.4 135.5H799.9V51.6A48 48 0 0 0 751.7 3.7H186.2A48 48 0 0 0 138.2 51.6V135.5H54.1A50.4 50.4 0 0 0 3.7 186.1L4.2 326.1S10.8 432.2 65.1 476C90.9 496.8 115.2 516.1 186.2 529.7 186.2 529.7 248.2 647.9 370.1 675.9L370.1 798.5H294.1A91.3 91.3 0 0 0 202.7 889.9V996.4H736.6V889.9A91.3 91.3 0 0 0 645.1 798.5H567.6V676C689.5 648.1 752.6 529.8 752.6 529.8 824.1 516 842.1 497.3 868.7 477.3 929.6 431.4 935.3 326.1 935.3 326.1L935.8 186.1A50.4 50.4 0 0 0 885.4 135.5ZM905.1 343.3A189.2 189.2 0 0 1 867.1 437.9C816.2 498.2 738.1 502 738.1 502A296.4 296.4 0 0 1 548.9 659.3L540.3 660.4 540.3 822.7H632.1A74.8 74.8 0 0 1 709.5 900.1V971.9H230.7V899.8C229.2 856.8 257.2 822.4 308.1 822.4H399.1V656.9A276.1 276.1 0 0 1 201.9 503.1S121 500.5 70.2 440.3A225.3 225.3 0 0 1 34.4 341.9L32.5 201.1S32.2 163.4 65.1 163.4L165.5 162.5 165.5 133.4 165.5 66.4A38 38 0 0 1 203.5 28.4H733.6A38 38 0 0 1 771.7 66.4L771.7 133.9 771.7 162.5 871.2 162.5C904.6 163.6 905.7 203 905.7 203Z",
        "width": 939
      },
      "search": [
        "asset-2"
      ]
    },
    {
      "uid": "22793f6e9c259c09c6b63f34b0e749a9",
      "css": "group",
      "code": 59393,
      "src": "custom_icons",
      "selected": true,
      "svg": {
        "path": "M759 874.2V898.6C837.6 907.6 884.2 919.6 883.8 933.1 883.3 948.6 808.1 972.6 450.3 973.4 149.3 974 32.3 951 30.2 932.6 29.1 922.5 68.8 908.8 144.5 898.3L144.5 874.2C52.2 887.1 1.3 907.5 1.3 931.4 1.3 974.8 96.2 999.4 455.6 998.9S909.1 974.4 909.7 931.4C910 901.7 853.9 884.4 759 874.2ZM96 313.4S99 271.7 207.1 261.2L207.9 238.3S156.1 176.7 171.4 149.4C171.4 149.4 165.9 93.9 217.8 90.3 217.8 90.3 285.5 80.6 286.4 144.9L315.2 144S318.5 59.8 228.7 60.4C228.7 60.4 151.7 59.5 144.9 139.1A25.7 25.7 0 0 0 141.3 153.3 65.3 65.3 0 0 0 148.5 181.4 343.3 343.3 0 0 0 176.3 234.7S81.6 247.1 68.7 293.8C68.7 293.8 56.9 358.3 49.6 428.7 49.6 428.7 43.3 499.1 56.9 523.8A495.2 495.2 0 0 0 107.9 597.7V872.4L107.9 898.3Q121.8 896.4 137 894.8L137 877.3V869.1L138.7 588.9S77.3 521.4 79 481.5A1096.5 1096.5 0 0 1 96 313.4ZM279.9 689.3V662L255.4 662A38.6 38.6 0 0 0 216.9 697.7L204.8 862.8 203.3 888.7 227.8 887 229.7 861.3 244.5 705.1A16.8 16.8 0 0 1 260.8 689.9ZM861.2 438.3C853.9 367.9 849.3 296.3 849.3 296.3 836.6 249.7 741.5 237.3 741.5 237.3A343.3 343.3 0 0 0 769.2 184 65.3 65.3 0 0 0 776.5 155.9 25.7 25.7 0 0 0 772.8 141.8C765.9 62.1 689.1 63 689.1 63 599.3 62.5 602.5 146.9 602.5 146.9L631.4 147.8C632.3 83.6 699.9 93.2 699.9 93.2 751.8 96.7 746.3 152.2 746.3 152.2 761.9 179.5 710 240.9 710 240.9L710.9 263.8C819 274.3 822 316 822 316 832.9 368.8 829.3 436 831.7 491.1 833.5 531.1 771.9 598.5 771.9 598.5L773.2 869.3V896L802.4 899V872.1L802.4 607.4A495.2 495.2 0 0 0 853.4 533.4C867.5 508.8 861.2 438.3 861.2 438.3ZM709.5 706.8A38.6 38.6 0 0 0 671 671.2L646.5 671.2V698.4L665.7 698.9A16.8 16.8 0 0 1 682 714.2L695.3 864.4H695.3L697.5 890.6 722 892.2 720.6 865.9ZM603.9 860.3L586.2 589.5A495.2 495.2 0 0 0 637.2 515.5C650.9 491.1 644.5 420.5 644.5 420.5 637.2 350 623.8 249.7 623.8 249.7 611.1 203.1 514.2 186.1 514.2 186.1A335.9 335.9 0 0 0 544 122.4 65.3 65.3 0 0 0 551.3 94.3 25.7 25.7 0 0 0 547.6 80.1 103.4 103.4 0 0 0 542.7 55.7C535.4 31.9 515.2 0.8 460.5 1.1 460.5 1.1 383.6 0 376.7 80A25.7 25.7 0 0 0 373.1 94.1 65.3 65.3 0 0 0 380.4 122.4 336 336 0 0 0 410.1 185.7S313.3 202.7 300.6 249.3C300.6 249.3 287.2 349.6 279.9 420.1 279.9 420.1 273.6 490.5 287.2 515.1A495.2 495.2 0 0 0 338.2 589.1L320.7 857.7Q285.6 858.5 253.3 860L250.5 885.7Q283.1 883.9 319.3 882.9L348.3 882.2 349.9 857 369.2 580.2S307.7 512.7 309.4 472.8C311.8 417.6 317 321.7 327.9 268.8 327.9 268.8 332.2 218.9 440.2 208.3L441.1 185.4S387.7 117.4 403.2 89.8C403.2 89.8 401.7 32.6 453.6 28.9A85.6 85.6 0 0 1 492 33.5C523.5 48.1 521.2 90.6 521.2 90.6 536.7 117.8 483.2 186 483.2 186L484.1 208.8C592.3 219.5 596.5 269.3 596.5 269.3 607.4 322.1 612.8 418.1 615 473.4 616.7 513.3 555 580.7 555 580.7L574.5 859.4 576 884.4 605.1 885.4Q641.1 886.9 674.1 888.8L671.3 862.9Q639 861.4 603.9 860.3ZM503.8 693.7A37.6 37.6 0 0 0 483.3 662.8 44.2 44.2 0 0 0 474.5 660.3L458.7 659.8A39.8 39.8 0 0 0 440.7 664.6 37.6 37.6 0 0 0 420.2 695.5L408.7 856.9 407.2 881.4H431.7L433.5 856.9 447.1 704.7A16.8 16.8 0 0 1 463.4 689.5 13.7 13.7 0 0 1 475.7 703L489.3 858.1 491.1 882.6 515.6 883 514.2 858.6Z",
        "width": 911
      },
      "search": [
        "asset-1"
      ]
    },
    {
      "uid": "8bff22e39275aab91e780debfab6ea67",
      "css": "birdthday",
      "code": 59394,
      "src": "custom_icons",
      "selected": true,
      "svg": {
        "path": "M960 1000L65.6 1000C29.4 1000 0 970.8 0 934.8L0 147.6C0 111.7 29.4 82.4 65.6 82.4L177.4 82.4 177.4 193C177.4 233.1 210.3 265.7 250.6 265.7L265.3 265.7C305.7 265.7 338.5 233.1 338.5 193L338.5 82.4 695.3 82.4 695.3 192C695.3 232.1 728.2 264.7 768.5 264.7L783.2 264.7C823.5 264.7 856.4 242.6 856.4 202.5L856.4 82.4 960 82.4C996.2 82.4 1025.6 111.7 1025.6 147.6L1025.6 934.8C1025.6 970.8 996.2 1000 960 1000ZM960 340.3L65.6 340.3 65.6 934.8 960 934.8C960 934.8 960 934.8 960 934.8L960 340.3ZM856.9 871.4L739.1 871.4C734.4 871.4 730.6 867.7 730.6 863L730.6 761.7C730.6 757.1 734.4 753.3 739.1 753.3L856.9 753.3C861.6 753.3 865.4 757.1 865.4 761.7L865.4 863C865.4 867.7 861.6 871.4 856.9 871.4ZM856.9 705.6L739.1 705.6C734.4 705.6 730.6 701.8 730.6 697.2L730.6 595.9C730.6 591.3 734.4 587.5 739.1 587.5L856.9 587.5C861.6 587.5 865.4 591.3 865.4 595.9L865.4 697.2C865.4 701.8 861.6 705.6 856.9 705.6ZM856.9 539.7L739 539.7C734.4 539.7 730.6 536 730.6 531.3L730.6 430.1C730.6 425.4 734.4 421.6 739 421.6L856.9 421.6C861.6 421.6 865.4 425.4 865.4 430.1L865.4 531.3C865.4 536 861.6 539.7 856.9 539.7ZM664.6 871.4L546.7 871.4C542 871.4 538.3 867.7 538.3 863L538.3 761.7C538.3 757.1 542 753.3 546.7 753.3L664.6 753.3C669.2 753.3 673 757.1 673 761.7L673 863C673 867.7 669.2 871.4 664.6 871.4ZM664.6 705.6L546.7 705.6C542 705.6 538.3 701.8 538.3 697.2L538.3 595.9C538.3 591.3 542 587.5 546.7 587.5L664.6 587.5C669.2 587.5 673 591.3 673 595.9L673 697.2C673 701.8 669.2 705.6 664.6 705.6ZM664.5 539.7L546.7 539.7C542 539.7 538.2 536 538.2 531.3L538.2 430.1C538.2 425.4 542 421.6 546.7 421.6L664.5 421.6C669.2 421.6 673 425.4 673 430.1L673 531.3C673 536 669.2 539.7 664.5 539.7ZM472.2 871.4L354.4 871.4C349.7 871.4 345.9 867.7 345.9 863L345.9 761.7C345.9 757.1 349.7 753.3 354.4 753.3L472.2 753.3C476.9 753.3 480.7 757.1 480.7 761.7L480.7 863C480.7 867.7 476.9 871.4 472.2 871.4ZM472.2 705.6L354.4 705.6C349.7 705.6 345.9 701.8 345.9 697.2L345.9 595.9C345.9 591.3 349.7 587.5 354.4 587.5L472.2 587.5C476.9 587.5 480.7 591.3 480.7 595.9L480.7 697.2C480.7 701.8 476.9 705.6 472.2 705.6ZM279.9 871.4L162 871.4C157.4 871.4 153.6 867.7 153.6 863L153.6 761.7C153.6 757.1 157.4 753.3 162 753.3L279.9 753.3C284.6 753.3 288.3 757.1 288.3 761.7L288.3 863C288.3 867.7 284.6 871.4 279.9 871.4ZM279.9 705.6L162 705.6C157.4 705.6 153.6 701.8 153.6 697.2L153.6 595.9C153.6 591.3 157.4 587.5 162 587.5L279.9 587.5C284.6 587.5 288.3 591.3 288.3 595.9L288.3 697.2C288.3 701.8 284.6 705.6 279.9 705.6ZM783.2 232.1L768.5 232.1C746.2 232.1 728.1 214.2 728.1 192L728.1 71.9 728.1 40.1C728.1 17.9 746.2 0 768.5 0L783.2 0C805.5 0 823.5 17.9 823.5 40.1L823.5 71.9 823.5 192C823.5 214.2 805.5 232.1 783.2 232.1ZM265.3 233.1L250.6 233.1C228.3 233.1 210.3 215.2 210.3 193L210.3 82.4 210.3 41.1C210.3 18.9 228.3 1 250.6 1L265.3 1C287.6 1 305.7 18.9 305.7 41.1L305.7 82.4 305.7 193C305.7 215.2 287.6 233.1 265.3 233.1Z",
        "width": 1026
      },
      "search": [
        "birday"
      ]
    },
    {
      "uid": "3ab5fb37b6b25aa401ed9185a3ac5bc7",
      "css": "dropdown",
      "code": 59395,
      "src": "custom_icons",
      "selected": true,
      "svg": {
        "path": "M0.1-0.4L1999.9-0.4 999.9 1000.3 0.1-0.4Z",
        "width": 2000
      },
      "search": [
        "dropdow_btn"
      ]
    },
    {
      "uid": "76cd142b905916cd30f319d4c78fcd7b",
      "css": "edit",
      "code": 59396,
      "src": "custom_icons",
      "selected": true,
      "svg": {
        "path": "M500 0C223.8 0 0 223.9 0 500 0 776.1 223.8 1000 500 1000 776.1 1000 1000 776.1 1000 500 1000 223.8 776.1 0 500 0ZM737.7 359.8L690.2 407.3 593.5 310.6 556.8 347.3 653.5 444 416.4 681.1 319.7 584.4 283.1 621.1 379.7 717.8 356.1 741.4 355.7 740.9C353 745.3 348.8 748.4 343.7 749.5L253.6 769.6C252.2 769.9 250.8 770.1 249.5 770.1 244.6 770.1 239.8 768.1 236.2 764.6 231.7 760 229.8 753.5 231.2 747.2L251.3 657.1C252.4 652.1 255.6 647.8 259.9 645.2L259.4 644.7 641 263.1C646.6 257.6 655.7 257.6 661.3 263.2L737.7 339.5C743.3 345.1 743.3 354.2 737.7 359.8Z",
        "width": 1000
      },
      "search": [
        "pencil_edit"
      ]
    },
    {
      "uid": "594f4de9910937a36ca4bcf74fe8f326",
      "css": "info",
      "code": 59397,
      "src": "custom_icons",
      "selected": true,
      "svg": {
        "path": "M500 1000C224.3 1000 0 775.7 0 500 0 224.3 224.3 0 500 0 775.7 0 1000 224.3 1000 500 1000 775.7 775.7 1000 500 1000ZM500 90.9C274.4 90.9 90.9 274.4 90.9 500 90.9 725.6 274.4 909.1 500 909.1 725.6 909.1 909.1 725.6 909.1 500 909.1 274.4 725.6 90.9 500 90.9ZM500 333.3C466.6 333.3 439.4 306.2 439.4 272.8 439.4 239.3 466.6 212.1 500 212.1 533.4 212.1 560.6 239.3 560.6 272.8 560.6 306.2 533.4 333.3 500 333.3ZM500 424.2C525.1 424.2 545.5 444.6 545.5 469.7L545.5 742.4C545.5 767.5 525.1 787.9 500 787.9 474.9 787.9 454.5 767.5 454.5 742.4L454.5 469.7C454.5 444.6 474.9 424.2 500 424.2Z",
        "width": 1000
      },
      "search": [
        "info1"
      ]
    },
    {
      "uid": "d447ce935b6153457a97be3519e0eb07",
      "css": "back",
      "code": 59398,
      "src": "custom_icons",
      "selected": true,
      "svg": {
        "path": "M14.5 535.7L461.8 985.3C481.4 1004.9 513.2 1004.9 532.9 985.3 552.5 965.6 552.5 933.6 532.9 913.9L121 500 532.8 86.1C552.5 66.5 552.5 34.5 532.8 14.7 513.2-5 481.4-5 461.7 14.7L14.4 464.3C-4.9 483.8-4.9 516.2 14.5 535.7Z",
        "width": 548
      },
      "search": [
        "back_btn"
      ]
    },
    {
      "uid": "1170a73f960245ba1b67ad23e0ee775e",
      "css": "user",
      "code": 59399,
      "src": "custom_icons",
      "selected": true,
      "svg": {
        "path": "M730.7 649.9S715.7 608.9 687.6 598.2C687.6 598.2 651.6 581.5 608.9 563.7 608.9 563.7 540.9 542.1 504.1 513.7A11.3 11.3 0 0 0 489.9 513.7C473.4 527.7 434.6 558.2 390.6 553.4 390.6 553.4 322.4 552.3 285.6 513.5A9.4 9.4 0 0 0 272.9 512.7C256 526.7 207.3 560.2 114.5 586.1 114.5 586.1 62.8 601.6 43.6 672.3 43.6 672.3 6.7 763.7 3.7 900.4 3.7 900.4 1.1 916.2 22.8 924 22.8 924 161.3 988.8 387.9 996 387.9 996 538.6 992.2 650.5 960A1096.3 1096.3 0 0 0 758.5 924.3 27.2 27.2 0 0 0 778.4 895.5S773.4 751.2 730.7 649.9ZM747.1 882.6A17.2 17.2 0 0 1 730.8 903.3C584.3 967.6 384 967.2 384 967.2A827.4 827.4 0 0 1 66.5 909.5C36.6 900.9 36.3 889.6 36.3 889.6 31.1 785.4 75.5 668.9 75.5 668.9 92.7 623.1 152.3 603.9 152.3 603.9A279 279 0 0 0 271.2 549.2 9.7 9.7 0 0 1 283.2 549.2C330.5 583.7 394 582.6 394 582.6A187.8 187.8 0 0 0 494.2 550.3 11.5 11.5 0 0 1 506.3 550.3C525.8 560.2 579.4 580.8 579.4 580.8 609.6 595.6 667.9 622 667.9 622 701.2 635.2 716.7 695.1 716.7 695.1A806.3 806.3 0 0 1 747.1 882.2ZM555.2 257C549.7 255.9 551.2 246 551.2 246 566.1 149.9 548.8 111.5 548.8 111.5A19.9 19.9 0 0 1 544.9 90.8C559.3 78.5 562.1 45.9 562.1 45.9A173.8 173.8 0 0 1 480.2 34.5 721.3 721.3 0 0 0 408.6 11.1C335.2-10 312.6 18.4 312.6 18.4A30.4 30.4 0 0 1 294.9 27 62.2 62.2 0 0 0 262 47.4S223.2 78.7 210.3 122.3A172.4 172.4 0 0 0 211.5 199.9S218.5 234.4 218.9 243.9C218.9 243.9 220.4 253.8 214.9 255 214.9 255 206.3 256.2 210.3 286.2 210.3 286.2 214.4 323 225.7 343.3A24.9 24.9 0 0 0 234.3 354.1 46.9 46.9 0 0 1 246.8 375.7S262.7 422.5 273.5 433.5C273.5 433.5 313 491.6 357.4 504.8A129.3 129.3 0 0 0 406 508.8 71.2 71.2 0 0 0 419.5 504.6C460.7 487.3 497.1 435.6 497.1 435.6 507.8 424.7 523.8 377.9 523.8 377.9A46.9 46.9 0 0 1 536.3 356.2 24.9 24.9 0 0 0 544.9 345.5C555.8 325.1 560.2 288.3 560.2 288.3 564.1 258.6 555.2 257 555.2 257ZM534.4 290.4A120.7 120.7 0 0 1 522.6 330.8 21.5 21.5 0 0 1 515.3 340.2 40.7 40.7 0 0 0 504.7 358.9S489.7 403.9 480.5 413.4C480.5 413.4 449.1 462.8 413.1 476.2A113.9 113.9 0 0 1 401.5 479.9 109.6 109.6 0 0 1 359.8 476.5C321 465.1 287.9 410.6 287.9 410.6 278.7 401.1 267.6 357.9 267.6 357.9A43.1 43.1 0 0 0 252.5 337 21.5 21.5 0 0 1 245.6 327.5 98.7 98.7 0 0 1 234.4 293.7C230.6 267.8 239.5 266.9 239.5 266.9 244.3 266 243.1 257.4 243.1 257.4 243.1 248.8 236.9 205.7 236.9 205.7A151.2 151.2 0 0 1 235.9 138.4 155.1 155.1 0 0 1 279 73.1 86.2 86.2 0 0 1 307.8 52.1 25.9 25.9 0 0 0 323 44.8S342.2 19 405.1 37.6C405.1 37.6 431 46.2 462.2 58.3A147.7 147.7 0 0 0 532.7 67.8 54.4 54.4 0 0 1 518.4 99.6 17.2 17.2 0 0 0 521.6 117.5S540.3 170.1 527.5 253.3C527.5 253.3 526.3 261.9 531 262.9 530.8 263.3 538.4 264.4 534.4 290.4Z",
        "width": 782
      },
      "search": [
        "asset-1"
      ]
    },
    {
      "uid": "52f6c3de628a14d4de14e5b403235e96",
      "css": "next",
      "code": 59400,
      "src": "custom_icons",
      "selected": true,
      "svg": {
        "path": "M455.9 500L8.2 48.4C-2.8 37.2-2.8 19.4 8.2 8.3 19.3-2.8 36.9-2.8 48 8.3L515.5 480C526.6 491.2 526.6 509 515.5 520.1L48 991.6C42.5 997 35.2 1000 28.2 1000 21.1 1000 13.9 997.3 8.5 991.6-2.6 980.5-2.6 962.7 8.5 951.6L455.9 500Z",
        "width": 524
      },
      "search": [
        "shape-1"
      ]
    },
    {
      "uid": "b495c662ec693885b1f954b4bb2e5080",
      "css": "question",
      "code": 59401,
      "src": "custom_icons",
      "selected": true,
      "svg": {
        "path": "M500 1000C351.1 1000 217.8 934.6 126.3 831.3L121.4 826.5 121.6 826.3C46 738.7 0 624.8 0 500 0 223.8 223.8 0 500 0 776.1 0 1000 223.8 1000 500 1000 776.1 776.1 1000 500 1000ZM500 44.4C248.4 44.4 44.4 248.4 44.4 500 44.4 678.9 182.3 955.5 500 955.5 751.6 955.5 955.5 751.6 955.5 500 955.5 248.4 751.6 44.4 500 44.4ZM566.6 540.2L566.6 633.3 516.6 633.3 516.6 550 516.6 533.3 516.6 500C562.7 500 600 462.7 600 416.6 600 370.6 562.7 333.3 516.6 333.3 470.6 333.3 433.3 370.6 433.3 416.6L383.3 416.6C383.3 343 443 283.3 516.6 283.3 590.3 283.3 650 343 650 416.6 650 472.6 615.5 520.4 566.6 540.2ZM541.6 650C564.6 650 583.3 668.6 583.3 691.6 583.3 714.6 564.6 733.3 541.6 733.3 518.6 733.3 500 714.6 500 691.6 500 668.6 518.6 650 541.6 650Z",
        "width": 1000
      },
      "search": [
        "q_ico"
      ]
    },
    {
      "uid": "d702d0d4c7b1f37b508763bfabd87074",
      "css": "trash",
      "code": 59402,
      "src": "custom_icons",
      "selected": true,
      "svg": {
        "path": "M742.9 346L742.9 885.8C742.9 948.8 691.2 1000.1 627.7 1000.1L188.1 1000.1C124.5 1000.1 72.8 948.8 72.8 885.8L72.8 346C30.2 329.2 0 288 0 239.8L0 234C0 171 51.7 119.7 115.2 119.7L272.3 119.7C280.1 52.3 337.9-0.2 407.9-0.2 477.9-0.2 535.7 52.3 543.5 119.7L700.5 119.7C764.1 119.7 815.8 171 815.8 234L815.8 239.8C815.8 288 785.5 329.2 742.9 346ZM127.5 885.8C127.5 918.9 154.6 945.9 188.1 945.9L627.7 945.9C661.1 945.9 688.3 918.9 688.3 885.8L688.3 354.1 127.5 354.1 127.5 885.8ZM407.9 54.1C368.1 54.1 334.8 82.3 327.5 119.7L488.2 119.7C480.9 82.3 447.7 54.1 407.9 54.1ZM761.1 234C761.1 200.8 733.9 173.9 700.5 173.9L115.2 173.9C81.8 173.9 54.6 200.8 54.6 234L54.6 239.8C54.6 272.9 81.8 299.9 115.2 299.9L700.5 299.9C733.9 299.9 761.1 272.9 761.1 239.8L761.1 234ZM554.4 876.6C539.3 876.6 527.1 864.5 527.1 849.5L527.1 544.4C527.1 529.4 539.3 517.3 554.4 517.3 569.5 517.3 581.7 529.4 581.7 544.4L581.7 849.5C581.7 864.5 569.5 876.6 554.4 876.6ZM407.9 876.6C392.8 876.6 380.5 864.5 380.5 849.5L380.5 544.4C380.5 529.4 392.8 517.3 407.9 517.3 423 517.3 435.2 529.4 435.2 544.4L435.2 849.5C435.2 864.5 423 876.6 407.9 876.6ZM261.3 876.6C246.2 876.6 234 864.5 234 849.5L234 544.4C234 529.4 246.2 517.3 261.3 517.3 276.4 517.3 288.7 529.4 288.7 544.4L288.7 849.5C288.7 864.5 276.4 876.6 261.3 876.6Z",
        "width": 816
      },
      "search": [
        "delete_ico"
      ]
    },
    {
      "uid": "220a3eff0a62098aff7f41a79a1987d0",
      "css": "down",
      "code": 59403,
      "src": "custom_icons",
      "selected": true,
      "svg": {
        "path": "M1692.7 1.9C1692.7 1.9 1727.5-6.3 1754.1 16.2 1787.4 44.4 1782.6 92.8 1782.6 92.8L991.1 910 901.2 1000.8 883.5 1000.8 793.6 910 2.1 92.8C2.1 92.8-9.9 49.1 30.6 16.2 56.1-4.4 92 1.9 92 1.9L892.3 810.2 1692.7 1.9Z",
        "width": 1788
      },
      "search": [
        "down_ico-copy"
      ]
    },
    {
      "uid": "377209662a482cafb335ea9ea6fd5e07",
      "css": "close",
      "code": 59404,
      "src": "custom_icons",
      "selected": true,
      "svg": {
        "path": "M596.3 500.1L995 107C1019.7 82.6 1019.7 42.9 995 18.6 970.2-5.9 930.1-5.9 905.3 18.6L506.6 411.7 107.9 18.6C83.2-5.9 43-5.9 18.3 18.6-6.5 42.9-6.5 82.6 18.3 107L417 500.1 18.3 893.3C-6.5 917.7-6.5 957.3 18.3 981.7 30.7 993.9 46.9 1000 63.1 1000 79.3 1000 95.6 993.9 107.9 981.7L506.6 588.5 905.3 981.7C917.7 993.9 933.9 1000 950.2 1000 966.4 1000 982.6 993.9 995 981.7 1019.7 957.3 1019.7 917.7 995 893.3L596.3 500.1Z",
        "width": 1014
      },
      "search": [
        "close_ico-copy"
      ]
    },
    {
      "uid": "83dfd1fab1c7ee41bf7d1cd0079bd7b8",
      "css": "rabbit",
      "code": 59405,
      "src": "custom_icons",
      "selected": true,
      "svg": {
        "path": "M724.1 948C709.5 978.7 678.5 1000 642.8 1000L194.3 1000C179.3 1000 167.2 987.7 167.2 972.5L167.2 911.7C167.2 868.2 161.3 824.9 149.7 783 139 744 139.3 703 150.1 664.7 122.8 656.3 98.4 644.4 77.7 629 26.9 591.3 0 534.9 0 466 0 393.7 30.4 324.3 82.4 275.6 66.3 249.2 52.5 216.5 42.9 181 30 133.3 28.2 95.5 37.5 65.4 46.6 35.9 66.4 15 94.7 5.1 117.7-2.9 140.3-1.5 160.2 9.1 190.7 25.4 213.2 61.5 228.9 119.5 237 149.4 241.7 179.8 242.8 207.9 250.6 207.5 258.3 207.5 266.1 207.9 267.2 179.8 271.9 149.4 280 119.5 295.7 61.5 318.2 25.4 348.7 9.1 368.6-1.5 391.2-2.9 414.1 5.1 448.1 17 500 55.7 466 181 456.4 216.5 442.7 249.2 426.5 275.6 456.9 304.1 479.9 339.6 493.8 378.7 561.8 408.4 620 456.6 662.6 518.8 704.3 579.9 728.2 650.5 732.3 724.5 781.5 736.6 818.2 781.7 818.2 835.4 818.2 892 777.4 939.1 724.1 948ZM373.7 302.7C367.8 298.3 364 291.6 363 284.1 362.1 276.7 364.1 269.3 368.7 263.4 386.8 240.4 403.2 205.1 413.7 166.4 426.1 120.7 423.8 95.3 419.7 81.9 415.7 69 408.5 61.4 396.4 57.2 385 53.1 378.1 55.6 374 57.9 364.8 62.8 347.2 79.2 332.3 134.1 322.6 170.1 318.4 206.5 320.7 236.5 321.4 245 318.1 253.3 311.9 259 305.7 264.7 297.3 267.2 289 265.7 266.3 261.7 242.6 261.7 219.9 265.7 211.6 267.2 203.2 264.7 197 259 190.8 253.3 187.5 245 188.2 236.5 190.4 206.5 186.3 170.1 176.6 134.1 161.7 79.2 144.1 62.8 134.9 57.9 132.4 56.5 128.8 55 123.8 55 120.6 55 116.9 55.6 112.5 57.2 100.4 61.4 93.2 69 89.2 81.9 85.1 95.3 82.8 120.7 95.2 166.4 105.7 205.1 122.1 240.4 140.2 263.4 144.7 269.3 146.8 276.7 145.9 284.1 144.9 291.6 141.1 298.3 135.1 302.7 83.7 341.5 54.2 401.1 54.2 466 54.2 517.3 72.9 557.2 109.7 584.5 144.8 610.6 194.9 624.3 254.4 624.3 314 624.3 364.1 610.6 399.2 584.5 436 557.2 454.7 517.3 454.7 466 454.7 401.1 425.2 341.5 373.7 302.7ZM678.7 908.4L678.7 747.5C678.7 676.5 657.7 608.3 618 550.3 589 507.8 551.6 472.9 508.2 447.5 508.7 453.7 508.9 459.8 508.9 466 508.9 534.9 482 591.3 431.2 629 386.7 662 325.6 679.4 254.4 679.4 236.8 679.4 219.7 678.3 203.4 676.2 194.1 705.7 193.6 737.7 202 768.2 214.9 814.9 221.4 863.2 221.4 911.7L221.4 944.9 266.7 944.9 266.7 795.7C266.7 780.5 278.8 768.2 293.8 768.2 308.7 768.2 320.9 780.5 320.9 795.7L320.9 944.9 379.3 944.9 379.3 936.6C379.3 895.6 404.9 860.6 440.7 847.1L433.7 815.9C423.3 769.9 434 722.4 463 685.5 492 648.6 535.2 627.5 581.7 627.5 596.7 627.5 608.8 639.8 608.8 655 608.8 670.2 596.7 682.6 581.7 682.6 551.8 682.6 524 696.2 505.4 719.9 486.8 743.5 479.9 774.1 486.5 803.7L499.8 862.6C501.6 870.7 499.7 879.3 494.5 885.9 489.4 892.4 481.6 896.2 473.3 896.2 451.4 896.2 433.6 914.3 433.6 936.6L433.6 944.9 642.8 944.9C662.6 944.9 678.7 928.5 678.7 908.4L678.7 908.4ZM732.9 783.2L732.9 887.6C751.4 877.7 763.9 858 763.9 835.4 763.9 812.8 751.4 793.1 732.9 783.2ZM375.5 477.9C368.4 477.9 361.4 475 356.4 469.9 351.3 464.7 348.4 457.6 348.4 450.4 348.4 443.1 351.3 436 356.4 430.9 361.4 425.8 368.4 422.8 375.5 422.8 382.7 422.8 389.7 425.8 394.7 430.9 399.7 436 402.6 443.1 402.6 450.4 402.6 457.6 399.7 464.7 394.7 469.9 389.7 475 382.7 477.9 375.5 477.9ZM263.3 497.7L254.6 497.7 254.6 506.5C254.6 521.7 242.4 534.1 227.5 534.1 212.5 534.1 200.3 521.7 200.3 506.5L200.3 497.7 191.7 497.7C176.7 497.7 164.5 485.4 164.5 470.2 164.5 455 176.7 442.7 191.7 442.7L263.3 442.7C278.2 442.7 290.4 455 290.4 470.2 290.4 485.4 278.2 497.7 263.3 497.7ZM102.2 477.9C95.1 477.9 88.1 475 83 469.9 78 464.7 75.1 457.6 75.1 450.4 75.1 443.1 78 436 83 430.9 88.1 425.8 95.1 422.8 102.2 422.8 109.3 422.8 116.3 425.8 121.4 430.9 126.4 436 129.3 443.1 129.3 450.4 129.3 457.6 126.4 464.7 121.4 469.9 116.3 475 109.3 477.9 102.2 477.9Z",
        "width": 818
      },
      "search": [
        "forma-1"
      ]
    },
    {
      "uid": "513ac180ff85bd275f2b736720cbbf5e",
      "css": "home",
      "code": 59407,
      "src": "entypo"
    },
    {
      "uid": "591d5eb695cb0c2c3ec68e6815f53169",
      "css": "user-data",
      "code": 59406,
      "src": "custom_icons",
      "selected": true,
      "svg": {
        "path": "M897 954.8C897 979.9 876.9 1000.2 852.1 1000.2 827.3 1000.2 807.2 979.9 807.2 954.8L807.1 954.3 805.9 954.3C784.6 778.3 639.2 641.5 460.7 635.8 456.9 636 453.1 636.4 449.3 636.4 445.4 636.4 441.6 636 437.8 635.8 259.4 641.5 114 778.4 92.7 954.3L91.5 954.3 91.6 954.8C91.6 979.9 71.5 1000.2 46.7 1000.2 21.9 1000.2 1.8 979.9 1.8 954.8L1.4 950.6C1.4 943 3.7 936.2 6.9 929.9 30.6 772.9 131.9 641.8 271.8 581 188.8 523.6 134.3 427.3 134.3 318 134.3 142.3 275.3-0.3 449.3-0.3 623.1-0.3 764.1 142.3 764.1 318 764.1 427.2 709.7 523.5 626.8 580.9 767.2 641.9 868.8 773.7 892 931.5 894.8 937.3 896.5 943.7 896.5 950.6L897 954.8ZM674.1 318.1C674.1 192.6 573.4 90.7 449.2 90.7 324.9 90.7 224.2 192.6 224.2 318.1 224.2 443.7 324.9 545.5 449.2 545.5 573.4 545.5 674.1 443.7 674.1 318.1Z",
        "width": 900
      },
      "search": [
        "data"
      ]
    },
    {
      "uid": "f597c856a05ad5270e7513243f1c8d86",
      "css": "phone",
      "code": 59408,
      "src": "custom_icons",
      "selected": true,
      "svg": {
        "path": "M841.8 596.1C819.9 573.4 793.7 561.4 765.7 561.4 738.1 561.4 711.5 573.2 688.8 595.9L617.7 666.4C611.8 663.3 606 660.4 600.3 657.5 592.2 653.4 584.6 649.7 578.1 645.6 511.4 603.5 450.9 548.6 392.9 477.6 364.8 442.2 345.8 412.4 332.1 382.2 350.6 365.4 367.7 347.9 384.3 331.1 390.6 324.8 396.9 318.3 403.2 312.1 450.5 265 450.5 204.1 403.2 157.1L341.8 95.9C334.8 88.9 327.6 81.8 320.9 74.6 307.4 60.7 293.2 46.4 278.6 32.9 256.7 11.4 230.7 0 203.2 0 175.7 0 149.2 11.4 126.7 32.9 126.4 33.2 126.4 33.2 126.2 33.4L49.7 110.2C20.9 138.9 4.5 173.8 0.9 214.4-4.5 279.8 14.8 340.7 29.7 380.6 66.2 478.5 120.6 569.2 201.8 666.4 300.4 783.6 419 876.1 554.4 941.3 606.2 965.7 675.3 994.6 752.4 999.6 757.2 999.8 762.2 1000 766.7 1000 818.6 1000 862.3 981.4 896.5 944.4 896.7 944 897.2 943.8 897.4 943.3 909.1 929.2 922.6 916.4 936.7 902.8 946.4 893.6 956.3 883.9 966 873.9 988.3 850.8 1000 823.9 1000 796.4 1000 768.6 988.1 741.9 965.3 719.6L841.8 596.1ZM922.3 832C922.1 832 922.1 832.2 922.3 832 913.6 841.4 904.6 849.9 894.9 859.3 880.3 873.2 865.4 887.8 851.4 904.1 828.8 928.3 801.9 939.7 766.9 939.7 763.5 939.7 759.9 939.7 756.5 939.5 689.7 935.3 627.6 909.3 581 887.1 453.6 825.7 341.8 738.6 248.8 628.1 172.1 536.1 120.8 450.9 86.8 359.6 65.9 303.8 58.3 260.3 61.7 219.3 63.9 193.1 74.1 171.4 92.7 152.8L169.4 76.4C180.4 66.1 192.2 60.5 203.6 60.5 217.8 60.5 229.3 69 236.5 76.2 236.7 76.4 236.9 76.6 237.2 76.8 250.9 89.6 263.9 102.8 277.7 116.9 284.6 124.1 291.8 131.3 299.1 138.7L360.5 199.8C384.3 223.6 384.3 245.5 360.5 269.3 353.9 275.8 347.7 282.3 341.1 288.6 322.2 307.8 304.2 325.7 284.6 343.2 284.2 343.6 283.7 343.8 283.5 344.3 264.2 363.6 267.8 382.4 271.8 395.2 272.1 395.8 272.3 396.5 272.5 397.2 288.4 435.7 310.9 472 345.2 515.2L345.4 515.4C407.5 591.6 473 651 545.2 696.4 554.4 702.3 563.9 707 572.9 711.4 581 715.5 588.6 719.3 595.2 723.3 596.1 723.8 596.9 724.4 597.9 724.9 605.5 728.7 612.7 730.5 620.2 730.5 638.8 730.5 650.5 718.8 654.3 715.1L731.3 638.4C738.9 630.8 751.1 621.6 765.3 621.6 779.2 621.6 790.7 630.4 797.7 638 797.9 638.2 797.9 638.2 798.1 638.4L922.1 761.9C945.3 784.7 945.3 808.2 922.3 832Z",
        "width": 1000
      },
      "search": [
        "shape-21"
      ]
    },
    {
      "uid": "b6d3667fc81ead170d79ffa0caa37323",
      "css": "location",
      "code": 59409,
      "src": "custom_icons",
      "selected": true,
      "svg": {
        "path": "M388.9 1000C217.9 1000 0 582.2 0 383.7 0 172.1 174.4 0 388.9 0 603.3 0 777.8 172.1 777.8 383.7 777.8 582.2 559.9 1000 388.9 1000ZM388.9 69.8C213.4 69.8 70.7 210.6 70.7 383.7 70.7 572.7 278.8 930.2 388.9 930.2 498.9 930.2 707.1 572.7 707.1 383.7 707.1 210.6 564.3 69.8 388.9 69.8ZM388.9 558.1C278.4 558.1 188.6 469.4 188.6 360.4 188.6 251.4 278.4 162.8 388.9 162.8 499.3 162.8 589.2 251.4 589.2 360.4 589.2 469.4 499.3 558.1 388.9 558.1ZM388.9 232.6C317.4 232.6 259.3 289.9 259.3 360.4 259.3 431 317.4 488.3 388.9 488.3 460.3 488.3 518.5 431 518.5 360.4 518.5 289.9 460.3 232.6 388.9 232.6Z",
        "width": 778
      },
      "search": [
        "shape-33"
      ]
    },
    {
      "uid": "db01c06ddc694b9891ef692d15fae947",
      "css": "circle",
      "code": 59410,
      "src": "custom_icons",
      "selected": true,
      "svg": {
        "path": "M500.1 0A500.1 500.1 0 1 0 1000 500.1 500.1 500.1 0 0 0 500.1 0ZM500.1 822A321.9 321.9 0 1 1 822 500.1 321.9 321.9 0 0 1 500.1 822Z",
        "width": 1000
      },
      "search": [
        "asset-4"
      ]
    },
    {
      "uid": "83327f376bfec0176c35f54eba848b37",
      "css": "prev-circle",
      "code": 59411,
      "src": "custom_icons",
      "selected": true,
      "svg": {
        "path": "M500 1000.3C224.1 1000.3-0.3 775.9-0.3 500-0.3 224.1 224.1-0.3 500-0.3 775.9-0.3 1000.3 224.1 1000.3 500 1000.3 775.9 775.9 1000.3 500 1000.3ZM500 65.3C260.3 65.3 65.3 260.3 65.3 500 65.3 739.7 260.3 934.7 500 934.7 739.7 934.7 934.7 739.7 934.7 500 934.7 260.3 739.7 65.3 500 65.3ZM424.9 500L604 679.1C616.8 691.9 616.8 712.7 604 725.5 597.6 731.9 589.2 735.1 580.8 735.1 572.4 735.1 564 731.9 557.6 725.5L355.2 523.2C349.1 517 345.6 508.7 345.6 500 345.6 491.3 349.1 482.9 355.2 476.8L557.6 274.5C570.4 261.7 591.1 261.7 604 274.5 616.8 287.3 616.8 308.1 604 320.9L424.9 500Z",
        "width": 1000
      },
      "search": [
        "forma-1"
      ]
    },
    {
      "uid": "2ef9420599b9bd8319894f57cf70dbe1",
      "css": "next-circle",
      "code": 59412,
      "src": "custom_icons",
      "selected": true,
      "svg": {
        "path": "M500 1000.3C224.1 1000.3-0.3 775.9-0.3 500-0.3 224.1 224.1-0.3 500-0.3 775.9-0.3 1000.3 224.1 1000.3 500 1000.3 775.9 775.9 1000.3 500 1000.3ZM500 65.3C260.3 65.3 65.3 260.3 65.3 500 65.3 739.7 260.3 934.7 500 934.7 739.7 934.7 934.7 739.7 934.7 500 934.7 260.3 739.7 65.3 500 65.3ZM442.4 725.5C436 731.9 427.6 735.1 419.2 735.1 410.8 735.1 402.4 731.9 396 725.5 383.2 712.7 383.2 691.9 396 679.1L575.1 500 396 320.9C383.2 308.1 383.2 287.3 396 274.5 408.8 261.7 429.6 261.7 442.4 274.5L644.7 476.8C650.9 482.9 654.4 491.3 654.4 500 654.4 508.7 650.9 517 644.7 523.2L442.4 725.5Z",
        "width": 1000
      },
      "search": [
        "forma-1-copy"
      ]
    },
    {
      "uid": "4647bc4344918a8b3f29c62e1a25a286",
      "css": "setting",
      "code": 59413,
      "src": "custom_icons",
      "selected": true,
      "svg": {
        "path": "M948.4 605L878.2 616.7C871.1 640.1 861.5 662.8 850 684.8L891.4 742.8C908.9 767.5 906 801.1 884.7 822.4L822.4 884.7C810.8 896.4 795.3 902.9 778.8 902.9 765.8 902.9 753.3 898.9 742.9 891.4L685 850C663.3 861.5 640.5 870.9 616.9 878.2L605 948.4C600 978.3 574.3 1000 544 1000L455.8 1000C425.5 1000 399.8 978.3 394.8 948.4L383.1 878.2C360.3 871.1 338.2 862.1 317.1 851.1L258.4 892.8C248 900.3 235.6 904.3 222.7 904.3 206.2 904.3 190.7 897.8 179 886.1L116.8 823.9C95.3 802.6 92.5 769 110.1 744.3L151.2 687.1C139.5 665.3 129.9 642.6 122.6 619.2L51.6 607.1C21.7 602 0 576.3 0 546.1L0 458.1C0 427.8 21.7 402.1 51.6 397.1L120.9 385.4C128.1 361.8 137.2 339 148.7 317.1L107 258.4C89.4 233.8 92.3 200.1 113.6 178.8L176.1 116.6C187.6 104.9 203.3 98.4 219.8 98.4 232.7 98.4 245.2 102.4 255.7 109.9L313.1 151.2C334.9 139.6 357.6 129.9 381 122.6L393.1 51.6C398.2 21.7 423.9 0 454.1 0L542.1 0C572.4 0 598.1 21.7 603.1 51.6L614.8 121C639.2 128.3 662.8 138.1 685.4 150L743.5 108.6C753.9 101.1 766.2 97.1 779.2 97.1 795.7 97.1 811.2 103.6 822.9 115.3L885.1 177.6C906.6 198.9 909.3 232.5 891.8 257.1L850.4 315C861.9 336.7 871.3 359.5 878.6 383.1L948.8 395C978.7 400 1000.4 425.7 1000 456L1000 544C1000 574.3 978.3 600 948.4 605ZM944.2 456C944.2 453.3 942.3 451 939.6 450.6L851.9 435.8C841 434.1 832.1 425.9 829.3 415.1 821.4 384.4 809.3 354.9 793 327.6 787.3 317.9 787.8 305.8 794.2 296.8L845.8 224.3C847.3 222.1 847.1 219.1 845.2 217.2L783 155C781.5 153.5 779.8 153.3 779 153.3 777.9 153.3 776.9 153.8 775.9 154.4L703.8 206.2C694.6 212.7 682.7 213.1 673.1 207.4 645.1 190.9 615 178.6 583.4 170.7 572.6 168 564.4 159 562.6 147.9L547.9 60.8C547.5 58.1 545.2 56.2 542.5 56.2L454.6 56.2C451.9 56.2 449.6 58.1 449.1 60.8L434.1 149.1C432.2 160 424.1 168.8 413.4 171.7 382.7 179.7 353.2 192.2 326.1 208.5 316.5 214.1 304.4 213.7 295.2 207.2L223.1 155.8C222.3 155.2 221.2 154.8 220 154.8 218.9 154.8 217.5 155 216 156.5L153.8 218.7C151.9 220.6 151.7 223.7 153.1 225.8L205.1 298.9C211.6 307.9 212.2 319.8 206.6 329.4 190.5 356.8 178.6 386.5 170.9 417.2 168.2 428 159.2 436.2 148.1 438.1L61 452.7C58.3 453.1 56.4 455.4 56.4 458.1L56.4 546.1C56.4 548.8 58.3 551.1 61 551.5L149.4 566.5C160.2 568.4 169 576.6 171.9 587.2 179.9 617.9 192.4 647.4 208.7 674.5 214.3 684.1 213.9 696.3 207.4 705.4L156 777.5C154.6 779.8 154.8 782.7 156.7 784.6L218.9 846.9C220.4 848.3 222.1 848.6 222.9 848.6 223.9 848.6 225 848.1 226 847.5L299.1 795.5C304 791.9 309.8 790.3 315.4 790.3 320.2 790.3 325.3 791.5 329.6 794 356.6 809.5 385.4 821.4 415.3 829.1 425.9 831.8 434.1 840.6 436 851.7L450.6 939.4C451 942.1 453.3 944 456 944L544 944C546.7 944 549 942.1 549.4 939.4L564.2 851.7C565.9 840.8 574.1 831.8 584.9 829.1 615.6 821.2 645.1 809.1 672.4 792.8 682.1 787.1 694.2 787.6 703.2 794L775.7 845.6C776.5 846.2 777.5 846.7 778.8 846.7 779.8 846.7 781.3 846.4 782.8 845L845 782.7C846.9 780.9 847.1 777.7 845.6 775.6L794 702.9C787.6 693.8 787.1 681.8 792.8 672.2 809.1 644.9 821.2 615.4 829.1 584.7 831.8 574.1 840.6 565.9 851.7 564L939.4 549.4C942.1 549 944 546.7 944 544L944.2 544 944.2 456ZM500.1 715.7C381 715.7 284.3 619 284.3 499.9 284.3 380.8 381 284.1 500.1 284.1 619.2 284.1 715.9 380.8 715.9 499.9 715.9 619 619.2 715.7 500.1 715.7ZM500.1 340.5C412.2 340.5 340.7 411.9 340.7 499.9 340.7 587.8 412.2 659.3 500.1 659.3 588.1 659.3 659.5 587.8 659.5 499.9 659.5 411.9 588.1 340.5 500.1 340.5Z",
        "width": 1000
      },
      "search": [
        "shape-1"
      ]
    },
    {
      "uid": "831094dedeb9783077355663e1d4ea1e",
      "css": "profile",
      "code": 59414,
      "src": "custom_icons",
      "selected": true,
      "svg": {
        "path": "M500 0C223.9 0 0 223.9 0 500 0 776.1 223.9 1000 500 1000 776.1 1000 1000 776.1 1000 500 1000 223.9 776.1 0 500 0ZM501.5 735.9L501.5 735.9 498.5 735.9 284.9 735.9C284.9 579.7 422.1 579.7 452.5 538.9L456 520.3C413.2 498.6 383 446.3 383 385.2 383 304.7 435.4 239.4 500 239.4 564.6 239.4 617 304.7 617 385.2 617 445.8 587.3 497.7 545.1 519.8L549.1 540.9C582.5 579.8 715.1 582.3 715.1 735.9L501.5 735.9Z",
        "width": 1000
      },
      "search": [
        "profile"
      ]
    },
    {
      "uid": "195938c2c0102887a186b671493bb148",
      "css": "history",
      "code": 59415,
      "src": "custom_icons",
      "selected": true,
      "svg": {
        "path": "M597.1 999.9C577.9 999.9 562.4 984.2 562.4 964.9 562.4 945.6 578 929.9 597.1 929.9 832.3 929.9 1023.6 737 1023.6 500 1023.6 262.9 832.3 70 597.1 70 362 70 170.7 262.9 170.7 500 170.6 502 168.2 576 189.5 647.9L221.5 568.1C228.7 550.2 248.9 541.6 266.7 548.8 284.4 556 293 576.4 285.8 594.3L223.5 749.7C223.1 750.7 222.4 751.6 221.9 752.5 221.7 753.1 221.7 753.7 221.3 754.2 221 755 220.3 755.4 219.9 756.1 219 757.4 218.1 758.6 217.1 759.7 216 760.9 215 762 213.7 763.1 212.6 764 211.5 764.9 210.2 765.7 208.9 766.6 207.5 767.3 206.1 768 204.8 768.7 203.5 769.2 202.1 769.7 200.5 770.2 199 770.5 197.3 770.8 196.4 771 195.7 771.3 194.8 771.4 194.2 771.5 193.7 771.3 193.1 771.3 192.5 771.4 192 771.6 191.3 771.6 190.3 771.6 189.2 771.3 188.1 771.2 186.6 771 185.1 770.9 183.6 770.6 182.4 770.3 181.2 769.9 180 769.4 178.2 768.8 176.5 768.1 174.8 767.2 174.5 767.1 174.2 767 173.9 766.9L17.3 674.9C0.8 665.1-4.8 643.7 4.8 627 14.6 610.4 35.7 604.7 52.3 614.4L119.1 653.7C98.6 575.5 101.1 502.9 101.3 498.6 101.3 224.3 323.7 0.1 597.1 0.1 870.5 0.1 1092.9 224.3 1093 500 1093 775.6 870.5 999.9 597.1 999.9ZM409.3 417.7L589 493.6 789.1 291.8C802.7 278.1 824.7 278.1 838.2 291.8 851.8 305.5 851.8 327.6 838.2 341.3L621.6 559.7C621.1 560.2 620.3 560.4 619.8 560.8 617.4 563 614.7 564.8 611.9 566.2 610.8 566.7 609.9 567.2 608.8 567.6 605 569 601.1 569.9 597 569.9 596.3 569.9 595.5 569.5 594.7 569.5 591 569.2 587.3 568.7 583.8 567.2 583.7 567.2 583.7 567.2 583.6 567.2L382.5 482.3C364.8 474.8 356.5 454.3 363.9 436.5 371.3 418.7 391.5 410.3 409.3 417.7Z",
        "width": 1093
      },
      "search": [
        "forma-1123123"
      ]
    },
    {
      "uid": "09dade8d492aff39c50b62bddb27d282",
      "css": "magazine",
      "code": 59416,
      "src": "custom_icons",
      "selected": true,
      "svg": {
        "path": "M1201.8 1000L20.4 1000C8.1 1000 0 991.9 0 979.8L0 291.5C0 279.3 8.1 271.3 20.4 271.3L387 271.3 387 311.7 40.7 311.7 40.7 959.5 1181.5 959.5 1181.5 311.7 794.4 311.7 794.4 271.3 1201.8 271.3C1214.1 271.3 1222.2 279.3 1222.2 291.5L1222.2 979.8C1222.2 991.9 1214.1 1000 1201.8 1000ZM1077.6 174.1L1049.1 143.7 1085.7 109.3 855.5 109.3 855.5 68.8 1089.8 68.8 1049.1 30.4 1077.6 0 1155 70.9C1159.1 78.9 1161.1 83 1161.1 89.1 1161.1 95.1 1159.1 99.2 1155 103.2L1077.6 174.1ZM896.3 757.1L713 757.1 713 716.6 896.3 716.6 896.3 757.1ZM529.6 757.1L346.3 757.1 346.3 716.6 529.6 716.6 529.6 757.1ZM672.2 716.6L672.2 757.1 570.4 757.1 570.4 716.6 672.2 716.6ZM835.2 574.9C822.9 574.9 814.8 566.8 814.8 554.6L814.8 433.2C814.8 421.1 822.9 413 835.2 413L1079.6 413C1091.8 413 1100 421.1 1100 433.2L1100 554.6C1100 566.8 1091.8 574.9 1079.6 574.9L835.2 574.9ZM1059.3 453.4L855.5 453.4 855.5 534.4 1059.3 534.4 1059.3 453.4ZM1100 757.1L937 757.1 937 716.6 1100 716.6 1100 757.1ZM1100 858.3L122.2 858.3 122.2 817.8 1100 817.8 1100 858.3ZM122.2 757.1L122.2 716.6 305.5 716.6 305.5 757.1 122.2 757.1ZM122.2 433.2L244.4 433.2 244.4 473.7 122.2 473.7 122.2 433.2ZM346.3 554.6L122.2 554.6 122.2 514.2 346.3 514.2 346.3 554.6ZM570.4 210.5L611.1 210.5C668.1 210.5 713 255.1 713 311.7 713 368.4 668.1 413 611.1 413L611.1 453.4 570.4 453.4 570.4 413C513.3 413 468.5 368.4 468.5 311.7L509.2 311.7C509.2 346.2 535.7 372.5 570.4 372.5L611.1 372.5C645.7 372.5 672.2 346.2 672.2 311.7 672.2 277.3 645.7 251 611.1 251L570.4 251C513.3 251 468.5 206.5 468.5 149.8 468.5 93.1 513.3 48.6 570.4 48.6L570.4 8.1 611.1 8.1 611.1 48.6C668.1 48.6 713 93.1 713 149.8L672.2 149.8C672.2 115.4 645.7 89.1 611.1 89.1L570.4 89.1C535.7 89.1 509.2 115.4 509.2 149.8 509.2 184.2 535.7 210.5 570.4 210.5ZM173.1 147.8L144.6 174.1 67.2 103.2C63.1 99.2 61.1 95.1 61.1 89.1 61.1 83 63.1 78.9 67.2 74.9L144.6 4 173.1 34.4 136.5 68.8 366.6 68.8 366.6 109.3 132.4 109.3 173.1 147.8Z",
        "width": 1222
      },
      "search": [
        "shapesd-1"
      ]
    },
    {
      "uid": "6572261fac95cbce81cb7bcf66390e0a",
      "css": "card",
      "code": 59417,
      "src": "custom_icons",
      "selected": true,
      "svg": {
        "path": "M902.1 610.6L893.5 610.6 893.5 900C893.5 955.3 848.8 1000 795.6 1000L97.9 1000C44.7 1000 0 955.3 0 902L0 487.3C0 434.1 44.7 389.4 97.9 389.4L126.7 389.4 126.7 98C126.7 44.7 171.3 0 224.6 0L901.7 0C954.9 0 999.6 44.7 1000 98L1000 510.6C1000 565.9 955.3 610.6 902.1 610.6ZM97.9 431.8C68.1 431.8 42.6 457.3 42.6 487.1L42.6 900C42.6 929.8 68.1 955.3 97.9 955.3L795.4 955.3C825.2 955.3 850.7 929.8 850.7 900L850.9 900 850.9 487.1C850.9 457.3 825.4 431.8 795.6 431.8L97.9 431.8ZM956.9 98C956.9 68.1 931.4 42.7 901.7 42.7L224.6 42.7C194.8 42.7 169.3 68.1 169.3 98L169.3 140.6 956.9 140.6 956.9 98ZM956.9 183.1L169.3 183.1 169.3 389.4 795.2 389.4C848.4 389.4 893.1 434.1 893.1 487.3L893.1 568.2 901.7 568.2C931.4 568.2 956.9 542.6 956.9 512.9L956.9 183.1ZM342.5 812.9L759.3 812.9 759.3 855.5 342.5 855.5 342.5 812.9ZM112.8 531.8L344.5 531.8 344.5 706.3 112.8 706.3 112.8 531.8ZM155.2 663.9L301.9 663.9 301.9 574.5 155.2 574.5 155.2 663.9Z",
        "width": 1000
      },
      "search": [
        "formddddda-1"
      ]
    },
    {
      "uid": "593e69cd221dd92f8f3e68bb1c65d948",
      "css": "doccument",
      "code": 59418,
      "src": "custom_icons",
      "selected": true,
      "svg": {
        "path": "M1000 578.9C1000 585.2 996.9 591.2 991.6 595L915.4 649 991.6 703C996.9 706.8 1000 712.8 1000 719.2 1000 725.5 996.9 731.5 991.6 735.3L623.6 996.2C620 998.7 615.8 1000 611.6 1000 607.4 1000 603.2 998.7 599.6 996.2L8.4 577C3.1 573.2 0 567.2 0 560.9 0 554.5 3.1 548.5 8.4 544.7L84.6 490.7 8.4 436.7C3.1 433 0 427 0 420.6 0 414.2 3.1 408.2 8.4 404.5L84.2 350.7 8.4 296.9C3.1 293.2 0 287.2 0 280.8 0 274.4 3.1 268.5 8.4 264.7L376.4 3.8C383.5-1.3 393.2-1.3 400.3 3.8L991.6 423C996.9 426.7 1000 432.7 1000 439.1 1000 445.5 996.9 451.5 991.6 455.2L915.8 509 991.6 562.8C996.9 566.5 1000 572.5 1000 578.9ZM55.1 560.9L611.6 955.5 944.9 719.2 880.7 673.6 623.6 855.9C620 858.4 615.8 859.7 611.6 859.7 607.4 859.7 603.2 858.4 599.6 855.9L119.3 515.3 55.1 560.9ZM944.9 439.1L388.4 44.5 55.1 280.8 611.6 675.4 944.9 439.1ZM881.1 533.6L623.6 716.2C620 718.7 615.8 719.9 611.6 719.9 607.4 719.9 603.2 718.7 599.6 716.2L118.9 375.3 55.1 420.6 611.6 815.2 944.9 578.9 881.1 533.6ZM596.3 522.1L587.2 515.6C578.1 509.2 576.1 496.7 582.7 487.8 589.3 478.9 602.1 476.9 611.2 483.4L620.3 489.8C629.4 496.3 631.4 508.8 624.8 517.7 620.8 523 614.6 525.9 608.3 525.9 604.2 525.9 600 524.7 596.3 522.1ZM352.5 187.6C359.2 178.7 371.9 176.7 381 183.2L701.5 410.4C710.7 416.9 712.7 429.4 706.1 438.3 702.1 443.6 695.8 446.5 689.5 446.5 685.4 446.5 681.2 445.2 677.6 442.7L357.1 215.4C348 209 345.9 196.5 352.5 187.6ZM558.7 470.8C554.7 476.1 548.5 479 542.2 479 538 479 533.8 477.8 530.2 475.2L275.8 294.8C266.7 288.4 264.7 275.9 271.3 267 277.9 258.1 290.7 256.1 299.8 262.6L554.1 442.9C563.2 449.4 565.3 461.9 558.7 470.8Z",
        "width": 1000
      },
      "search": [
        "shapdsdsdsddsdsde-1"
      ]
    },
    {
      "uid": "a7a6c32a865b1da3ab89b4c1267a12f3",
      "css": "list",
      "code": 59419,
      "src": "custom_icons",
      "selected": true,
      "svg": {
        "path": "M0 1000L0 300 0 66.6 215.5 66.6 232.5 66.6C239.6 28.6 270.7 0 307.9 0 345 0 376.1 28.6 383.3 66.6L351.2 66.6C344.9 47.3 327.9 33.3 307.9 33.3 287.8 33.3 270.9 47.3 264.5 66.6L277.1 66.6 351.2 66.6C352.9 71.9 354 77.4 354 83.3 354 110.9 333.3 133.3 307.9 133.3 299.4 133.3 292.5 140.8 292.5 150 292.5 159.2 299.4 166.6 307.9 166.6 350.3 166.6 384.8 129.3 384.8 83.3 384.8 77.6 384.3 72 383.3 66.6L443.6 66.6C445.3 71.9 446.4 77.4 446.4 83.3 446.4 110.9 425.7 133.3 400.2 133.3 391.7 133.3 384.8 140.8 384.8 150 384.8 159.2 391.7 166.6 400.2 166.6 442.7 166.6 477.2 129.3 477.2 83.3 477.2 77.6 476.6 72 475.6 66.6L536 66.6C537.7 71.9 538.8 77.4 538.8 83.3 538.8 110.9 518 133.3 492.6 133.3 484.1 133.3 477.2 140.8 477.2 150 477.2 159.2 484.1 166.6 492.6 166.6 535 166.6 569.6 129.3 569.6 83.3 569.6 77.6 569 72 568 66.6L628.3 66.6C630 71.9 631.1 77.4 631.1 83.3 631.1 110.9 610.4 133.3 585 133.3 576.4 133.3 569.6 140.8 569.6 150 569.6 159.2 576.4 166.6 585 166.6 627.4 166.6 661.9 129.3 661.9 83.3 661.9 77.6 661.4 72 660.4 66.6L892.9 66.6 892.9 300 892.9 1000 0 1000ZM862 333.3L30.8 333.3 30.8 966.6 862 966.6 862 333.3ZM138.5 433.3L477.2 433.3C485.7 433.3 492.6 440.8 492.6 450 492.6 459.2 485.7 466.6 477.2 466.6L138.5 466.6C130 466.6 123.1 459.2 123.1 450 123.1 440.8 130 433.3 138.5 433.3ZM138.5 566.6L292.5 566.6C301 566.6 307.9 574.1 307.9 583.3 307.9 592.5 301 600 292.5 600L138.5 600C130 600 123.1 592.5 123.1 583.3 123.1 574.1 130 566.6 138.5 566.6ZM149.5 705C152.3 708 153.9 712.3 153.9 716.7 153.9 721 152.3 725.3 149.5 728.5 146.5 731.5 142.5 733.3 138.5 733.3 134.4 733.3 130.5 731.5 127.6 728.5 124.8 725.3 123.1 721 123.1 716.7 123.1 712.3 124.8 708 127.6 704.8 133.3 698.6 143.8 698.6 149.5 705ZM138.5 833.3L523.4 833.3C531.9 833.3 538.8 840.8 538.8 850 538.8 859.2 531.9 866.6 523.4 866.6L138.5 866.6C130 866.6 123.1 859.2 123.1 850 123.1 840.8 130 833.3 138.5 833.3ZM600.4 833.3L754.3 833.3C762.8 833.3 769.7 840.8 769.7 850 769.7 859.2 762.8 866.6 754.3 866.6L600.4 866.6C591.9 866.6 585 859.2 585 850 585 840.8 591.9 833.3 600.4 833.3ZM754.3 733.3L523.4 733.3C514.9 733.3 508 725.9 508 716.7 508 707.4 514.9 700 523.4 700L754.3 700C762.8 700 769.7 707.4 769.7 716.7 769.7 725.9 762.8 733.3 754.3 733.3ZM754.3 600C750.3 600 746.3 598.3 743.4 595.1 740.6 592 738.9 587.6 738.9 583.3 738.9 579 740.6 574.6 743.4 571.5 749.1 565.3 759.4 565.3 765.2 571.5 768.1 574.6 769.7 579 769.7 583.3 769.7 587.6 768.1 592 765.2 595.1 762.3 598.3 758.3 600 754.3 600ZM358.5 595.1C355.8 592 354 587.6 354 583.3 354 579 355.8 574.6 358.5 571.5 364.2 565.3 374.7 565.3 380.4 571.5 383.1 574.6 384.8 579 384.8 583.3 384.8 587.6 383.1 592 380.4 595.1 377.5 598.3 373.4 600 369.4 600 365.4 600 361.4 598.3 358.5 595.1ZM461.8 716.7C461.8 725.9 454.9 733.3 446.4 733.3L215.5 733.3C207 733.3 200.1 725.9 200.1 716.7 200.1 707.4 207 700 215.5 700L446.4 700C454.9 700 461.8 707.4 461.8 716.7ZM677.3 600L446.4 600C437.9 600 431 592.5 431 583.3 431 574.1 437.9 566.6 446.4 566.6L677.3 566.6C685.8 566.6 692.7 574.1 692.7 583.3 692.7 592.5 685.8 600 677.3 600ZM400.2 33.3C391.7 33.3 384.8 25.9 384.8 16.6 384.8 7.4 391.7 0 400.2 0 437.4 0 468.5 28.6 475.6 66.6L443.6 66.6C437.2 47.3 420.3 33.3 400.2 33.3ZM492.6 33.3C484.1 33.3 477.2 25.9 477.2 16.6 477.2 7.4 484.1 0 492.6 0 529.8 0 560.8 28.6 568 66.6L536 66.6C529.6 47.3 512.6 33.3 492.6 33.3ZM585 33.3C576.4 33.3 569.6 25.9 569.6 16.6 569.6 7.4 576.4 0 585 0 622.1 0 653.2 28.6 660.4 66.6L628.3 66.6C621.9 47.3 605 33.3 585 33.3Z",
        "width": 893
      },
      "search": [
        "forddaaaaaaaaaama-1"
      ]
    },
    {
      "uid": "e4fa076f93a1962745e45e1e2a2eb2d2",
      "css": "store",
      "code": 59420,
      "src": "custom_icons",
      "selected": true,
      "svg": {
        "path": "M1103.5 0L127.2 0 0 273 0 278C0 339.8 51.5 391.2 118.7 401L118.7 1000 244.5 1000 244.5 516 497 516 497 1000 1102.1 1000 1102.1 402.3C1174.2 396.3 1230.8 342.9 1230.8 278L1230.8 273 1103.5 0ZM544.6 953.9L544.6 470 196.9 470 196.9 953.9 166.2 953.9 166.2 401C168.4 400.7 170.5 400.2 172.5 399.8 174.9 399.3 177.3 398.9 179.6 398.4 183 397.5 186.2 396.5 189.5 395.5 193 394.4 196.4 393.2 199.7 391.9 202.7 390.7 205.6 389.6 208.4 388.3 210.8 387.2 213 386 215.3 384.8 217.5 383.6 219.8 382.3 221.9 381.1 224.2 379.7 226.3 378.3 228.5 376.8 230.5 375.4 232.5 374 234.5 372.6 236.5 371 238.5 369.5 240.4 367.8 242.4 366.2 244.2 364.5 246 362.7 247.8 361.1 249.5 359.5 251.2 357.8 253.5 355.3 255.6 352.8 257.7 350.1 258.5 349.1 259.6 348.1 260.4 347 262.1 349.3 264 351.3 265.9 353.5 267.5 355.3 269 357.3 270.7 359.1 271.7 360 272.8 360.9 273.8 361.8 276.7 364.6 279.5 367.3 282.7 369.9 283.5 370.5 284.3 371.1 285.2 371.7 288.7 374.4 292.2 377 296 379.5 296.7 379.9 297.4 380.2 298.1 380.7 302.2 383.1 306.3 385.5 310.6 387.5 312.3 388.4 314.2 389 316 389.8 319.4 391.3 322.7 392.8 326.3 394.1 328.7 394.9 331.2 395.5 333.7 396.2 342.3 398.8 351.2 400.8 360.5 401.9 366.5 402.5 372.5 402.9 378.7 402.9 428 402.9 471.5 380.7 497 347 522.5 380.7 566.1 402.9 615.4 402.9 664.7 402.9 708.2 380.7 733.7 347 759.2 380.7 802.7 402.9 852 402.9 858.2 402.9 864.3 402.5 870.2 401.9 871.9 401.7 873.6 401.3 875.2 401 879.5 400.4 883.7 399.8 887.8 398.9 888.1 398.8 888.5 398.7 888.8 398.6 894.2 397.3 899.4 395.8 904.4 394.1 904.8 394 905.1 393.8 905.4 393.7 932 384.2 954.6 367.8 970.3 347.1 971 348 971.9 348.8 972.7 349.7 976.2 354.1 980.2 358.3 984.3 362.3 985.9 363.8 987.4 365.2 989 366.7 1007 382.2 1029.4 393.7 1054.6 399.1L1054.6 953.9 544.6 953.9 544.6 953.9ZM1089.8 356.7L1080.2 356C1067.9 355.1 1056.4 352.3 1046 348 1046 348 1046 347.9 1045.9 347.9 1041.1 345.9 1036.5 343.5 1032.2 340.8 1031.2 340.2 1030.2 339.5 1029.2 338.8 1026 336.6 1022.8 334.3 1019.9 331.7 1018.2 330.2 1016.7 328.5 1015.1 326.9 1013.2 324.8 1011.1 322.8 1009.4 320.7 1007.6 318.2 1006 315.7 1004.5 313.2 1003.4 311.3 1002.2 309.7 1001.2 307.8 999.7 304.6 998.6 301.2 997.5 297.8 997 296.3 996.3 295 996 293.4 994.8 288.4 994.1 283.3 994.1 278L946.6 278C946.6 321.5 904.2 356.8 852 356.8 799.9 356.8 757.5 321.5 757.5 278L709.9 278C709.9 321.5 667.5 356.8 615.3 356.8 563.2 356.8 520.8 321.5 520.8 278L473.3 278C473.3 321.5 430.8 356.8 378.7 356.8 326.6 356.8 284.2 321.5 284.2 278L236.6 278C236.6 283.4 235.9 288.7 234.7 293.8 225.9 329.6 187.8 356.7 142.4 356.8L141.5 356.8C91.5 356.6 50.5 323.8 47.7 282.6L157.9 46 1072.8 46 1183.1 282.6C1180.2 323.6 1139.5 356.2 1089.8 356.7ZM563.3 811.5L1036.7 811.5 1036.7 470 563.3 470 563.3 811.5ZM610.9 516L989.2 516 989.2 765.5 610.9 765.5 610.9 516Z",
        "width": 1231
      },
      "search": [
        "daily"
      ]
    },
    {
      "uid": "5fd1d5dfe51dcbaa8a151e94c053ae02",
      "css": "success",
      "code": 59421,
      "src": "custom_icons",
      "selected": true,
      "svg": {
        "path": "M500 1000C224.3 1000 0 775.7 0 500 0 224.3 224.3 0 500 0 775.7 0 1000 224.3 1000 500 1000 775.7 775.7 1000 500 1000ZM500 38.4C245.5 38.4 38.5 245.5 38.5 500 38.5 754.5 245.5 961.5 500 961.5 754.5 961.5 961.5 754.5 961.5 500 961.5 245.5 754.5 38.4 500 38.4ZM456.7 666.6C452.9 670.9 447.6 673.1 442.3 673.1 438.1 673.1 433.8 671.7 430.3 668.8L238 515C229.7 508.4 228.3 496.3 235 488 241.6 479.7 253.7 478.3 262 485L440.1 627.4 735.6 294.9C742.7 286.9 754.8 286.2 762.8 293.3 770.7 300.4 771.4 312.5 764.4 320.4L456.7 666.6Z",
        "width": 1000
      },
      "search": [
        "formq1asfafa-1"
      ]
    },
    {
      "uid": "22cbe2abd3c7e9ce3215be259d211232",
      "css": "board",
      "code": 59422,
      "src": "custom_icons",
      "selected": true,
      "svg": {
        "path": "M966.3 557.7L950.3 557.7 950.3 33.8C950.3 15.1 935.2 0 916.6 0L83.4 0C64.8 0 49.7 15.1 49.7 33.8L49.7 557.7 33.7 557.7C15.1 557.7 0 572.8 0 591.5 0 610.2 15.1 625.3 33.7 625.3L366.2 625.3 234 953.5C227 970.8 235.3 990.5 252.6 997.5 269.8 1004.5 289.4 996.2 296.4 978.8L375.7 781.9C375.9 781.9 376.1 781.9 376.3 781.9L623.7 781.9C623.9 781.9 624.1 781.9 624.3 781.9L703.6 978.8C708.9 992 721.5 1000 734.8 1000 739 1000 743.3 999.2 747.4 997.5 764.7 990.5 773 970.8 766 953.5L633.8 625.3 966.3 625.3C984.9 625.3 1000 610.2 1000 591.5 1000 572.8 984.9 557.7 966.3 557.7ZM117.1 557.7L117.1 67.6 882.9 67.6 882.9 557.7 117.1 557.7ZM597.1 714.3L402.9 714.3 438.8 625.3 561.2 625.3 597.1 714.3Z",
        "width": 1000
      },
      "search": [
        "png_hotro_ico_4_chuquan"
      ]
    },
    {
      "uid": "634be1a8d315334428332e876734daee",
      "css": "support",
      "code": 59423,
      "src": "custom_icons",
      "selected": true,
      "svg": {
        "path": "M1146.3 1000L1031.5 1000 107.6 1000C106.2 1000 104.9 999.9 103.6 999.8 46.1 997.7 0 950.1 0 891.9L0 108C0 48.5 48.3 0 107.6 0L962.9 0C1022.2 0 1070.5 48.5 1070.5 108L1070.5 845.6C1070.5 887.6 1104.5 921.7 1146.3 921.7 1188.1 921.7 1222 887.6 1222 845.6L1222 338.5C1222 322.1 1208.7 308.7 1192.3 308.7 1170.8 308.7 1153.4 291.2 1153.4 269.6 1153.4 248 1170.8 230.4 1192.3 230.4 1251.7 230.4 1300 278.9 1300 338.5L1300 845.6C1300 930.8 1231 1000 1146.3 1000ZM992.6 845.6L992.6 108C992.6 91.6 979.2 78.3 962.9 78.3L107.6 78.3C91.2 78.3 78 91.6 78 108L78 891.9C78 908.3 91.2 921.7 107.6 921.7L1012.6 921.7C999.9 899.2 992.6 873.3 992.6 845.6ZM258.5 328.4L375 328.4 375 211.5C375 189.8 392.4 172.3 413.9 172.3 435.5 172.3 452.9 189.8 452.9 211.5L452.9 367.5C452.9 389.2 435.5 406.7 413.9 406.7L258.5 406.7C237 406.7 219.5 389.2 219.5 367.5 219.5 345.9 237 328.4 258.5 328.4ZM266.1 523.2L812 523.2C833.5 523.2 851 540.8 851 562.4 851 584 833.5 601.5 812 601.5L266.1 601.5C244.6 601.5 227.1 584 227.1 562.4 227.1 540.8 244.6 523.2 266.1 523.2ZM266.1 718.1L812 718.1C833.5 718.1 851 735.6 851 757.2 851 778.8 833.5 796.4 812 796.4L266.1 796.4C244.6 796.4 227.1 778.8 227.1 757.2 227.1 735.6 244.6 718.1 266.1 718.1ZM812 406.7L569.4 406.7C547.8 406.7 530.4 389.2 530.4 367.5 530.4 345.9 547.8 328.4 569.4 328.4L812 328.4C833.5 328.4 851 345.9 851 367.5 851 389.2 833.5 406.7 812 406.7Z",
        "width": 1300
      },
      "search": [
        "png_hotro_ico_3_linhe"
      ]
    },
    {
      "uid": "ae5d7109a3aababc686554303ab4dce8",
      "css": "dolla",
      "code": 59424,
      "src": "custom_icons",
      "selected": true,
      "svg": {
        "path": "M500 1000C224.3 1000 0 775.7 0 500 0 224.3 224.3 0 500 0 775.7 0 1000 224.3 1000 500 1000 775.7 775.7 1000 500 1000ZM500 65.8C260.6 65.8 65.8 260.6 65.8 500 65.8 739.4 260.6 934.2 500 934.2 739.4 934.2 934.2 739.4 934.2 500 934.2 260.6 739.4 65.8 500 65.8ZM660.6 627.6C660.6 704.9 605.7 769.5 532.9 784.7L532.9 836.9C532.9 855 518.2 869.8 500 869.8 481.8 869.8 467.1 855 467.1 836.9L467.1 784.6C426.1 776 389.6 751.6 366 715.8 356 700.6 360.2 680.2 375.4 670.2 390.5 660.2 410.9 664.4 421 679.6 432.2 696.7 448.5 709.4 467.1 716.3L467.1 529.5C394.3 514.4 339.4 449.7 339.4 372.4 339.4 295.1 394.3 230.5 467.1 215.3L467.1 163.1C467.1 144.9 481.8 130.2 500 130.2 518.2 130.2 532.9 144.9 532.9 163.1L532.9 215.4C573.9 224 610.4 248.3 634 284.2 644 299.4 639.8 319.8 624.6 329.8 609.5 339.8 589.1 335.6 579 320.4 567.8 303.3 551.5 290.6 532.9 283.7L532.9 470.5C605.7 485.6 660.6 550.4 660.6 627.6ZM532.9 716.3C569 702.9 594.8 668.3 594.8 627.6 594.8 586.9 569 552.3 532.9 538.9L532.9 716.3ZM467.1 283.7C431 297.1 405.2 331.7 405.2 372.4 405.2 413.1 431 447.7 467.1 461.1L467.1 283.7Z",
        "width": 1000
      },
      "search": [
        "png_hotro_ico_2_quytrinh"
      ]
    },
    {
      "uid": "c650a6ba370572b7a7c6701039edb736",
      "css": "note",
      "code": 59425,
      "src": "custom_icons",
      "selected": true,
      "svg": {
        "path": "M558 459.3L459.3 451.9A5.3 5.3 0 0 1 454.6 448.4L417.1 353.7A32.6 32.6 0 0 0 355.7 353.7L318 448.6A5.5 5.5 0 0 1 313.3 452.1L214.8 459.5A32.8 32.8 0 0 0 185.8 482.5 34.3 34.3 0 0 0 195.6 519.6L272 584.9A5.8 5.8 0 0 1 273.8 590.5L250.5 689.2A34.3 34.3 0 0 0 255.7 718.3 32.5 32.5 0 0 0 282 731.7 30.5 30.5 0 0 0 299.5 726.3L383 672.5A5.3 5.3 0 0 1 388.7 672.5L472.9 726.1A30.8 30.8 0 0 0 490.4 731.7 31.9 31.9 0 0 0 515 719.4 35.6 35.6 0 0 0 521.3 689.9L498 590.6A5.9 5.9 0 0 1 499.8 584.9L577.3 519.5A34.5 34.5 0 0 0 586.9 482.5 32.7 32.7 0 0 0 558 459.3ZM555.5 505.8L482 566A24.6 24.6 0 0 0 473.8 590.7L496 681.5A12.5 12.5 0 0 1 493.6 692.3 11.6 11.6 0 0 1 484.8 696.8 11 11 0 0 1 478.5 694.7L398.1 645.1A24.3 24.3 0 0 0 385.2 641.5 24 24 0 0 0 372.3 645.2L292.9 694.9A11.7 11.7 0 0 1 277.3 692.1 11.1 11.1 0 0 1 275.7 681.8L297.9 590.7A24.6 24.6 0 0 0 289.5 566.1L217.1 506.1A12.2 12.2 0 0 1 224.3 484.6L318.2 477.9A24.3 24.3 0 0 0 339 462.8L374.9 375.1A12.2 12.2 0 0 1 397.5 375.1L433.4 462.8A24.3 24.3 0 0 0 454.2 477.9L548.3 484.7A11.8 11.8 0 0 1 558.9 493 12.1 12.1 0 0 1 555.4 505.8ZM564.3 503.3M135 109C135 112 135 115.1 135 117.7A196.1 196.1 0 0 1 174.2 114.1L793.7 114.1C794.3 115.5 791.9 114.1 792.5 115.6 775 135.5 765.2 147.7 761.9 159 753.9 189.8 758.7 207.1 758.4 232.7V939.4A24.7 24.7 0 0 1 734.2 965.1L62.4 966.2C48.8 966.2 34.6 958.4 34.6 944.3L35.2 260C35.2 196.4 58.2 151.1 103.4 129A121.8 121.8 0 0 1 102.7 116.3V90.5C102.7 88.9 102.7 87.3 102.7 85.7A144.2 144.2 0 0 0 2.5 225.4V959.4C2.5 980.1 15.6 997.5 35.5 997.5H756.5A36.4 36.4 0 0 0 792.1 963.1S792.1 206.3 792.1 202.6A98.9 98.9 0 0 1 873.1 111.1H896.7A15.2 15.2 0 0 0 912 98.4 14.7 14.7 0 0 0 897.9 81.5L791 79.7H143.2C140.7 79.7 138.3 79.7 135.8 79.7 135.3 85.2 135 91.2 135 97.2ZM902.2 2.5H185.6C132 2.5 104.7 39.3 102.9 85.6A137.9 137.9 0 0 1 135.8 80C138.8 48.7 151.8 30.2 192.5 30.2H891.8C940 30.2 973.7 56.5 973.7 98.3V109.4C973.7 151.6 940 167.7 891.8 167.7H849.7V195.4H902.4C957.8 195.4 1002.8 164.8 1002.8 116.4V90.5C1002.6 41.8 957.6 2.5 902.2 2.5ZM102.7 90.5V116.3A121.8 121.8 0 0 0 103.4 129 141.3 141.3 0 0 1 135.2 118.2C135.2 115.2 135.2 112.1 135.2 109.4V97.8C135.2 91.5 135.2 85.6 136 80.3A137.9 137.9 0 0 0 103.1 85.9C102.8 87.3 102.7 88.9 102.7 90.5Z",
        "width": 1005
      },
      "search": [
        "asset-1"
      ]
    },
    {
      "uid": "ab32eeb734f0c0ea0712609f573c6a13",
      "css": "ball",
      "code": 59426,
      "src": "custom_icons",
      "selected": true,
      "svg": {
        "path": "M880.7 165.8H880.7A317.8 317.8 0 0 0 636.9 3.2H636.9C627.7 2.1 618.3 1.5 608.8 1.4H608.8L602.4 1.4A317.6 317.6 0 0 0 324.9 164.5L319.2 164.5A317.7 317.7 0 0 0 269.8 796.1 376.2 376.2 0 1 0 702.9 259.9 273.6 273.6 0 0 1 864.2 197.3C870.5 197.3 876.7 196.7 883 196.7 887 196.7 890.8 196.7 894.7 196.7 1048.6 202.7 1165.8 326.7 1167.3 482.2 1168.4 591.6 1102.3 685.7 1013.4 735.2A19 19 0 0 0 1008 758.9 13.8 13.8 0 0 0 1025.8 764.1 316.4 316.4 0 0 0 881.1 165.5ZM945.6 623.1A342.7 342.7 0 1 1 603 280.4 342.7 342.7 0 0 1 945.7 623.1ZM665.3 252.6A375.5 375.5 0 0 0 227.4 623.1 357.1 357.1 0 0 0 253 761.6 296.1 296.1 0 0 1 32.7 480.3C31.4 328.9 161.4 200.1 307.2 196.2L315.3 196.2C322.8 196.2 330.2 196.2 337.5 197.1 375.1 199.9 414.5 206.3 446.5 222.2A13.5 13.5 0 0 0 463.6 217.8L464.2 216.8A13.4 13.4 0 0 0 458.8 197.3 301.8 301.8 0 0 0 357.7 167 279.4 279.4 0 0 1 599.8 32.1C601.9 32.1 634 34.2 634 34.2A286.7 286.7 0 0 1 847.1 167.6 308.3 308.3 0 0 0 665.3 252.6ZM465.2 376.2A278.8 278.8 0 0 0 327.7 647.1 12.3 12.3 0 0 0 339.6 658.2H339.6C347 658.2 358 653.7 357.2 646.3A254.4 254.4 0 0 1 482.8 399.1C488.8 395.6 485.3 386.2 481.7 380.4A12.2 12.2 0 0 0 465.2 376.2ZM506.2 371C508.9 376.8 515.7 383.6 521.8 381.4A252.8 252.8 0 0 1 605.3 367.7C611.4 367.7 617.4 367.7 623.4 368.4S636.3 359.1 636.3 352H636.3A12.3 12.3 0 0 0 624.8 339.8Q615 339.1 605.2 339.1A277.3 277.3 0 0 0 513 354.3 12.3 12.3 0 0 0 506.2 371Z",
        "width": 1200
      },
      "search": [
        "asset-1"
      ]
    },
    {
      "uid": "225784f28377e008ee4047fbbb7fbe5c",
      "css": "nav-user",
      "code": 59460,
      "src": "custom_icons",
      "selected": true,
      "svg": {
        "path": "M730.9 633.2S715.8 591.9 687.5 581.1C687.4 581.7 651.2 564.4 607.8 547 607.8 547 539.3 525.3 502.2 496.7A11.4 11.4 0 0 0 487.9 496.7C471.2 510.7 432.1 541.5 387.9 536.6 387.9 536.6 319.1 535.6 282 496.5A9.5 9.5 0 0 0 269.3 495.6C252.3 509.1 203.3 542.8 109.8 569 109.8 569 57.7 584.6 38.4 655.8A955.1 955.1 0 0 0 0 903.6S-2.6 919.6 19.2 927.4C19.2 927.4 158.7 992.7 387 1000 387 1000 538.9 996.1 651.6 963.7A1104.4 1104.4 0 0 0 759.8 927.4 27.4 27.4 0 0 0 779.9 898.4S773.9 735.4 730.9 633.2ZM217.1 242.1S218.5 252.1 213 253.2C213 253.2 204.3 254.5 208.4 284.7 208.4 284.7 212.5 321.8 223.8 342.2A25.1 25.1 0 0 0 232.5 353 47.2 47.2 0 0 1 245.1 374.8S261.2 422 272 433C272 433 311.9 491.6 356.5 504.9A130.2 130.2 0 0 0 405.5 508.9 71.7 71.7 0 0 0 419.1 504.6C460.6 487.3 497.3 435.2 497.3 435.2 508.1 424.2 524.2 377 524.2 377A47.2 47.2 0 0 1 536.8 355.2 25.1 25.1 0 0 0 545.5 344.4C556.1 323.8 560.3 286.5 560.3 286.5 564.6 256.3 555.7 255 555.7 255 550.1 253.9 551.6 243.9 551.6 243.9 566.6 147.1 549.2 108.4 549.2 108.4A20.1 20.1 0 0 1 545.3 87.6C559.8 75.2 562.6 42.3 562.6 42.3A175 175 0 0 1 480 31.2 726.8 726.8 0 0 0 408.1 7.9C334.1-13.4 311.4 15.2 311.4 15.2A30.7 30.7 0 0 1 293.5 23.9 62.7 62.7 0 0 0 260.5 44.1S221.3 75.6 208.4 119.6A173.7 173.7 0 0 0 209.6 197.7S216.5 232.5 217.1 242.1Z",
        "width": 780
      },
      "search": [
        "asset-5"
      ]
    },
    {
      "uid": "c41357422561814ac8d20e1a8ea3ea74",
      "css": "nav-note",
      "code": 59461,
      "src": "custom_icons",
      "selected": true,
      "svg": {
        "path": "M895.3 0H184.1C130.2 0 102.7 37 101 83.6A145 145 0 0 0 0 224.1V961.7C0 982.5 13.2 1000.1 33.2 1000.1H757.8A36.6 36.6 0 0 0 793.6 965.4S793.6 204.8 793.6 201.1A99.4 99.4 0 0 1 875.1 109.2H898.8A15.3 15.3 0 0 0 914.1 96.5 14.7 14.7 0 0 0 899.4 79.4L792.4 77.5H149.9A86 86 0 0 1 156.2 52.4L903.4 54.4A38.6 38.6 0 0 1 903.4 131.6H851.5L851.5 153.4H851.5V181.2H903.4C947.4 181.2 987.5 165.4 995.4 116.1L996.4 88.2C996.4 39.6 951.2 0 895.3 0ZM241.5 476.1A25.3 25.3 0 0 1 264 458.5L340.1 452.9A4.3 4.3 0 0 0 343.9 449.7L373 376.3A25.2 25.2 0 0 1 420.2 376.3L449.2 449.7A4.1 4.1 0 0 0 452.7 452.4L529.1 458.5A25.3 25.3 0 0 1 551.5 476.1 26.5 26.5 0 0 1 544 504.6L484 555.5A4.6 4.6 0 0 0 482.6 559.9L500.2 636.3A27.5 27.5 0 0 1 495.3 659.1 24.7 24.7 0 0 1 476.1 668.6 23.7 23.7 0 0 1 462.6 664.3L397.5 623A4.1 4.1 0 0 0 393.1 623L328.6 664.5A23.6 23.6 0 0 1 315.2 668.7 25.1 25.1 0 0 1 295.1 658.4 26.5 26.5 0 0 1 291.1 635.9L308.7 559.7A4.5 4.5 0 0 0 307.3 555.4L248.4 505A26.5 26.5 0 0 1 241.5 476.1Z",
        "width": 996
      },
      "search": [
        "asset-4"
      ]
    },
    {
      "uid": "fc5f07612cc03b7069122fc93e2e3599",
      "css": "nav-ball",
      "code": 59462,
      "src": "custom_icons",
      "selected": true,
      "svg": {
        "path": "M235.7 781.3A382.4 382.4 0 0 1 208.2 633 402.1 402.1 0 0 1 677.7 236.3 330.1 330.1 0 0 1 872.3 145.2 307.1 307.1 0 0 0 644.1 2.3S609.6 0 607.4 0A299.3 299.3 0 0 0 348 144.4 323.3 323.3 0 0 1 456.3 176.8 14.4 14.4 0 0 1 462.1 197.8L461.4 198.8A14.5 14.5 0 0 1 443.1 203.6C408.6 186.5 366.7 179.8 326.4 176.6 318.5 176.1 310.6 175.6 302.6 175.6L293.9 175.6A299.4 299.4 0 0 0 110.7 247.5L84.5 272.5A299.3 299.3 0 0 0 0 480.1 317.1 317.1 0 0 0 235.7 781.3ZM1215.1 482.4C1213.6 315.9 1088 183.2 923.2 176.6 919 176.6 914.9 176.6 910.7 176.6 903.9 176.6 897.3 176.6 890.6 177.4A293 293 0 0 0 717.8 244.4 403.7 403.7 0 0 1 980.9 791.5C999.2 782.3 1023.3 770.2 1048.7 754.9A11.4 11.4 0 0 1 1050 753.8C1052.7 752.4 1055.2 750.7 1057.9 749.2 1070.3 741.3 1083 732.8 1095.1 723.6 1166.8 666.4 1216.1 580.2 1215.1 482.4ZM610.8 265.6A367 367 0 1 0 977.8 632.6 367 367 0 0 0 610.8 265.6ZM514.8 345.1A297 297 0 0 1 613.6 328.4Q624.2 328.4 634.5 329.1A13.2 13.2 0 0 1 646.9 342.2H646.9C646.9 349.8 640.7 360.5 633.1 359.7S620.1 359 613.6 359A270.8 270.8 0 0 0 524.1 374.2C517.6 376.5 510.3 369.2 507.4 363A13.2 13.2 0 0 1 514.8 345.1ZM346.1 628.9A272.1 272.1 0 0 0 348 657.9C348.8 665.8 337.1 670.8 329.2 670.6H329.2A13.2 13.2 0 0 1 316.4 658.7 298.6 298.6 0 0 1 463.3 368.7 13.1 13.1 0 0 1 480.8 373.2C484.7 379.4 488.4 389.5 482 393.1A272.4 272.4 0 0 0 346.1 628.9ZM769.9 608.7L707.7 661.2A4.8 4.8 0 0 0 706.2 665.8L724.5 745.1A28.6 28.6 0 0 1 719.9 769.2 25.6 25.6 0 0 1 699.8 779.4 24.6 24.6 0 0 1 685.7 774.9L618.1 732A4.2 4.2 0 0 0 613.6 732L546.7 774.5A24.5 24.5 0 0 1 532.8 778.9 26.1 26.1 0 0 1 511.9 768.2 27.5 27.5 0 0 1 507.7 744.9L526 665.8A4.7 4.7 0 0 0 524.5 661.3L463.4 608.9A27.5 27.5 0 0 1 455.5 579.2 26.3 26.3 0 0 1 478.8 560.9L558.6 554.7A4.5 4.5 0 0 0 562.3 551.8L592.5 475.6A26.2 26.2 0 0 1 641.6 475.6L671.7 551.7A4.2 4.2 0 0 0 675.4 554.6L754.6 560.4A26.3 26.3 0 0 1 777.8 578.8 27.5 27.5 0 0 1 769.9 608.7Z",
        "width": 1215
      },
      "search": [
        "asset-3"
      ]
    },
    {
      "uid": "65a3caec5253c3fbf6ae15cec34724e3",
      "css": "nav-club",
      "code": 59463,
      "src": "custom_icons",
      "selected": true,
      "svg": {
        "path": "M811.3 881.3L807.3 599A505.9 505.9 0 0 0 854.4 526.1 75.8 75.8 0 0 0 860.6 502.5L862.7 498.8 861.8 491A445.4 445.4 0 0 0 861.2 430.5C854.4 359.6 843.2 294.8 843.2 294.8 831.1 247.9 741.4 235.5 741.4 235.5A354.4 354.4 0 0 0 767.5 181.9 68.7 68.7 0 0 0 774.4 153.6 27.1 27.1 0 0 0 771.3 139.5C764.8 59.4 692.2 60.3 692.2 60.3 607.4 59.7 610.2 144.4 610.2 144.4H610.2A321.5 321.5 0 0 0 613.4 183.1S647.2 193.3 652.3 222L679.4 442.5S687 521.1 653.4 554.7L618.9 602.2 638.1 866C621.7 864.9 608.7 864.1 601.7 863.9L584.4 591.5A499 499 0 0 0 634.3 516.9C647.7 492.3 641.4 421.4 641.4 421.4 634.3 350.5 621.2 249.7 621.2 249.7 608.8 202.8 514 185.7 514 185.7A342.2 342.2 0 0 0 543.1 122.1 66.9 66.9 0 0 0 550.3 93.8 26.3 26.3 0 0 0 546.7 79.6 106.7 106.7 0 0 0 541.9 55C534.7 30.4 515-0.8 461.4-0.4 461.4-0.4 386.1-1.3 379.3 78.8A26.3 26.3 0 0 0 375.8 93 66.9 66.9 0 0 0 382.9 121.3 342.3 342.3 0 0 0 412.1 184.9S317.3 202 304.8 248.9C304.8 248.9 291.8 349.7 284.6 420.5 284.6 420.5 278.4 491.3 291.8 516.1A499 499 0 0 0 341.7 590.8L325.8 849.5 323.7 866.5 292.5 868.1 307.3 601.1 272.7 553.5C239.3 520.1 246.7 441.4 246.7 441.4L273.8 221.5C279 192.8 312.8 182.6 312.8 182.6A321.5 321.5 0 0 0 316 143.9H316S319.1 59.2 233.9 59.8C233.9 59.8 161.3 58.9 154.8 139A27.1 27.1 0 0 0 151.4 153.2 68.7 68.7 0 0 0 158.3 181.5 354.3 354.3 0 0 0 184.5 235.1S94.6 247.5 82.6 294.4C82.6 294.4 71.5 359.2 64.6 430A445.4 445.4 0 0 0 64 490.6L63.1 498.4 65.2 502.1A75.8 75.8 0 0 0 71.9 525.1 505.9 505.9 0 0 0 118.9 598.1L114.9 878.9C40.6 892.8 0 911.7 0 932.1 0 975.8 95.4 1000.6 456.8 1000S912.7 975.4 913.4 932.1C913.7 907.9 876.5 891.9 811.3 881.3ZM719.1 693.9A16.4 16.4 0 0 1 730.9 708.5L745.8 865.4 746.7 876.3C727.3 873.5 696.1 870.5 667 868.1L681.1 709.3A16.9 16.9 0 0 1 697.5 693.9L704.7 693.9ZM452.9 863.7H434.9L434.9 860.2 448.5 707.1A16.9 16.9 0 0 1 464.9 691.8 13.8 13.8 0 0 1 477.5 705.7L491.2 861.6 491.2 864.5Q472.3 863.7 452.9 863.7ZM228.6 692.9A16.9 16.9 0 0 1 245 708.2L259.1 870.2C230.7 872.2 203.8 874.7 179 877.6L180 864.4 194.9 707.4A16.4 16.4 0 0 1 206.7 692.9L221.1 692.9Z",
        "width": 913
      },
      "search": [
        "asset-2"
      ]
    },
    {
      "uid": "2e3cec853d9ae143e5218fbc838567ab",
      "css": "nav-cup",
      "code": 59464,
      "src": "custom_icons",
      "selected": true,
      "svg": {
        "path": "M885.3 137.7L799.5 137 800.1 52.9A48.2 48.2 0 0 0 752.3 4.4L185 0A48.2 48.2 0 0 0 136.6 47.8L135.9 131.9 51.6 131.3A50.6 50.6 0 0 0 0.6 181.6L0 322.1S5.8 428.6 59.9 472.8C85.7 493.9 109.9 513.5 181 527.7 181 527.7 242.3 646.8 364.3 675.7L363 798.7 287.1 798.1A91.7 91.7 0 0 0 194.6 889L193.9 995.9 729.5 1000 730.4 893.3A91.7 91.7 0 0 0 639.4 800.8L562.1 800.2 563 677.3C685.4 650.2 749.7 532 749.7 532 821 518.9 839.1 500.2 865.9 480.4 927.3 434.8 933.9 329.3 933.9 329.3L935.5 188.8A50.6 50.6 0 0 0 885.3 137.7ZM166.2 392.6A15.4 15.4 0 0 1 151.1 408.5H151.1A15.4 15.4 0 0 1 136.8 392.2L137.9 254.9A15.4 15.4 0 0 1 153.1 238.8C161.1 239.1 167.4 246.3 167.3 260.1ZM611.5 282.9L552.6 331.9A4.4 4.4 0 0 0 551.2 336.2L568.3 411.1A26.9 26.9 0 0 1 563.3 433.3 24.1 24.1 0 0 1 544.3 442.7 23.2 23.2 0 0 1 531.1 438.4L467.7 397.4A4 4 0 0 0 463.5 397.4L400.1 437.5A23.1 23.1 0 0 1 386.9 441.5 24.7 24.7 0 0 1 367.4 431.2 25.9 25.9 0 0 1 363.6 409.2L381.8 334.8A4.4 4.4 0 0 0 380.5 330.5L323.1 280.8A25.9 25.9 0 0 1 316 252.8 24.7 24.7 0 0 1 338.1 235.5L412.6 230.5A4.2 4.2 0 0 0 416.2 227.8L445.3 156.3A24.7 24.7 0 0 1 491.5 156.6L519.3 228.5A4 4 0 0 0 522.7 231.2L597.3 237.4A24.7 24.7 0 0 1 619 255.1 26.1 26.1 0 0 1 611.5 282.9ZM794.6 397.4A15.4 15.4 0 0 1 779.6 413.3H779.6A15.4 15.4 0 0 1 765.3 397.1L766.4 259.8A15.4 15.4 0 0 1 781.4 243.6C789.4 243.8 795.7 251.1 795.6 264.9Z",
        "width": 936
      },
      "search": [
        "asset-1"
      ]
    }
  ]
}